{
  "project_info": {
    "project_number": "241663038141",
    "firebase_url": "https://isuaepsdev.firebaseio.com",
    "project_id": "isuaepsdev",
    "storage_bucket": "isuaepsdev.appspot.com"
  },
  "client": [
    {
      "client_info": {
        "mobilesdk_app_id": "1:241663038141:android:f007f4ae59301a37",
        "android_client_info": {
          "package_name": "com.iserveu.aeps"
        }
      },
      "oauth_client": [
        {
          "client_id": "241663038141-nmi0406gc6vtmfupm4mbbcls28k5p5jr.apps.googleusercontent.com",
          "client_type": 3
        }
      ],
      "api_key": [
        {
          "current_key": "AIzaSyAURZ4sUCb_Hqk45ZBFRwVqC_sSjdDGtJo"
        }
      ],
      "services": {
        "analytics_service": {
          "status": 1
        },
        "appinvite_service": {
          "status": 1,
          "other_platform_oauth_client": []
        },
        "ads_service": {
          "status": 2
        }
      }
    },
    {
      "client_info": {
        "mobilesdk_app_id": "1:241663038141:android:7c7e213585ced9f5",
        "android_client_info": {
          "package_name": "com.iserveu.bisani"
        }
      },
      "oauth_client": [
        {
          "client_id": "241663038141-nmi0406gc6vtmfupm4mbbcls28k5p5jr.apps.googleusercontent.com",
          "client_type": 3
        }
      ],
      "api_key": [
        {
          "current_key": "AIzaSyAURZ4sUCb_Hqk45ZBFRwVqC_sSjdDGtJo"
        }
      ],
      "services": {
        "analytics_service": {
          "status": 1
        },
        "appinvite_service": {
          "status": 1,
          "other_platform_oauth_client": []
        },
        "ads_service": {
          "status": 2
        }
      }
    },
    {
      "client_info": {
        "mobilesdk_app_id": "1:241663038141:android:117eb4767c692359",
        "android_client_info": {
          "package_name": "com.iserveu.cyrusw68"
        }
      },
      "oauth_client": [
        {
          "client_id": "241663038141-nmi0406gc6vtmfupm4mbbcls28k5p5jr.apps.googleusercontent.com",
          "client_type": 3
        }
      ],
      "api_key": [
        {
          "current_key": "AIzaSyAURZ4sUCb_Hqk45ZBFRwVqC_sSjdDGtJo"
        }
      ],
      "services": {
        "analytics_service": {
          "status": 1
        },
        "appinvite_service": {
          "status": 1,
          "other_platform_oauth_client": []
        },
        "ads_service": {
          "status": 2
        }
      }
    },
    {
      "client_info": {
        "mobilesdk_app_id": "1:241663038141:android:92285517dbe8da4b",
        "android_client_info": {
          "package_name": "com.iserveu.dpay"
        }
      },
      "oauth_client": [
        {
          "client_id": "241663038141-nmi0406gc6vtmfupm4mbbcls28k5p5jr.apps.googleusercontent.com",
          "client_type": 3
        }
      ],
      "api_key": [
        {
          "current_key": "AIzaSyAURZ4sUCb_Hqk45ZBFRwVqC_sSjdDGtJo"
        }
      ],
      "services": {
        "analytics_service": {
          "status": 1
        },
        "appinvite_service": {
          "status": 1,
          "other_platform_oauth_client": []
        },
        "ads_service": {
          "status": 2
        }
      }
    },
    {
      "client_info": {
        "mobilesdk_app_id": "1:241663038141:android:019147cdb38b5046",
        "android_client_info": {
          "package_name": "com.iserveu.dseva"
        }
      },
      "oauth_client": [
        {
          "client_id": "241663038141-nmi0406gc6vtmfupm4mbbcls28k5p5jr.apps.googleusercontent.com",
          "client_type": 3
        }
      ],
      "api_key": [
        {
          "current_key": "AIzaSyAURZ4sUCb_Hqk45ZBFRwVqC_sSjdDGtJo"
        }
      ],
      "services": {
        "analytics_service": {
          "status": 1
        },
        "appinvite_service": {
          "status": 1,
          "other_platform_oauth_client": []
        },
        "ads_service": {
          "status": 2
        }
      }
    }
  ],
  "configuration_version": "1"
}