-- Merging decision tree log ---
application
INJECTED from E:\UTTAM_WORKSPACE\new aepsmatm advanced\EasyAEPSAndroidApp\app\src\main\AndroidManifest.xml:32:5-156:19
INJECTED from E:\UTTAM_WORKSPACE\new aepsmatm advanced\EasyAEPSAndroidApp\app\src\main\AndroidManifest.xml:32:5-156:19
REJECTED from [finosdk.aar] C:\Users\lenovo\.gradle\caches\transforms-1\files-1.1\finosdk.aar\6a40f23130a3899ef56f915e9b35aa45\AndroidManifest.xml:39:5-77:19
REJECTED from [com.karumi:dexter:4.2.0] C:\Users\lenovo\.gradle\caches\transforms-1\files-1.1\dexter-4.2.0.aar\5c0279b66a658228aba1e1b297a7826a\AndroidManifest.xml:26:5-30:19
REJECTED from [com.github.ravindu1024:android-loadingdialog:1.0.3] C:\Users\lenovo\.gradle\caches\transforms-1\files-1.1\android-loadingdialog-1.0.3.aar\af24d6d30cfc66c5c07ffd7958a61ed5\AndroidManifest.xml:11:5-15:19
REJECTED from [com.github.jrvansuita:CheckNewAppVersionAvailable:v1.0.0] C:\Users\lenovo\.gradle\caches\transforms-1\files-1.1\CheckNewAppVersionAvailable-v1.0.0.aar\186af6d8c88ab6e9ec3f650e92475b49\AndroidManifest.xml:11:5-15:19
REJECTED from [com.android.support.constraint:constraint-layout:1.1.3] C:\Users\lenovo\.gradle\caches\transforms-1\files-1.1\constraint-layout-1.1.3.aar\af5fa875f7e535bfad087d7ec5552969\AndroidManifest.xml:9:5-20
REJECTED from [com.github.jaydeep17:datetimepicker:0.0.4] C:\Users\lenovo\.gradle\caches\transforms-1\files-1.1\datetimepicker-0.0.4.aar\85af73fa443f58343fe901475d32ee9c\AndroidManifest.xml:11:5-20
REJECTED from [com.borax12.materialdaterangepicker:library:1.9] C:\Users\lenovo\.gradle\caches\transforms-1\files-1.1\library-1.9.aar\3ba3d5be713be5e06858046be6377593\AndroidManifest.xml:28:5-20
REJECTED from [com.google.firebase:firebase-auth:16.0.3] C:\Users\lenovo\.gradle\caches\transforms-1\files-1.1\firebase-auth-16.0.3.aar\3ce27c1094f4f1eeb7b6dd82acaba9d5\AndroidManifest.xml:22:5-36:19
REJECTED from [com.google.android.gms:play-services-location:15.0.1] C:\Users\lenovo\.gradle\caches\transforms-1\files-1.1\play-services-location-15.0.1.aar\417d2332272e3b146013a32cb04515de\AndroidManifest.xml:7:5-20
REJECTED from [com.google.firebase:firebase-core:16.0.0] C:\Users\lenovo\.gradle\caches\transforms-1\files-1.1\firebase-core-16.0.0.aar\300152548f95c28152320e81605f687b\AndroidManifest.xml:7:5-20
REJECTED from [com.google.firebase:firebase-measurement-connector-impl:16.0.0] C:\Users\lenovo\.gradle\caches\transforms-1\files-1.1\firebase-measurement-connector-impl-16.0.0.aar\82efb2fd65da44e887fab3d03879337d\AndroidManifest.xml:26:5-32:19
REJECTED from [com.google.firebase:firebase-analytics:16.0.0] C:\Users\lenovo\.gradle\caches\transforms-1\files-1.1\firebase-analytics-16.0.0.aar\411f5b483684ccbd6775d372d9077eaf\AndroidManifest.xml:28:5-53:19
REJECTED from [com.google.firebase:firebase-auth-interop:16.0.0] C:\Users\lenovo\.gradle\caches\transforms-1\files-1.1\firebase-auth-interop-16.0.0.aar\e1446faa06dd217265adc9133f3d3d2c\AndroidManifest.xml:7:5-8:19
REJECTED from [com.google.firebase:firebase-analytics-impl:16.0.0] C:\Users\lenovo\.gradle\caches\transforms-1\files-1.1\firebase-analytics-impl-16.0.0.aar\d47e60e485f4f8d1435768475cc43c02\AndroidManifest.xml:28:5-39:19
REJECTED from [com.google.firebase:firebase-iid:16.0.0] C:\Users\lenovo\.gradle\caches\transforms-1\files-1.1\firebase-iid-16.0.0.aar\0037ee74b5b7d2dad6ae8d034afcb809\AndroidManifest.xml:34:5-63:19
REJECTED from [com.google.firebase:firebase-common:16.0.0] C:\Users\lenovo\.gradle\caches\transforms-1\files-1.1\firebase-common-16.0.0.aar\546c18ccd1a43491143a89d7a53449b7\AndroidManifest.xml:8:5-14:19
REJECTED from [com.google.firebase:firebase-iid-interop:16.0.0] C:\Users\lenovo\.gradle\caches\transforms-1\files-1.1\firebase-iid-interop-16.0.0.aar\cc88f9488b38a6908bdb6b60387abb90\AndroidManifest.xml:7:5-8:19
REJECTED from [com.google.android.gms:play-services-base:15.0.1] C:\Users\lenovo\.gradle\caches\transforms-1\files-1.1\play-services-base-15.0.1.aar\185f9ee284c1e9e4d3e108484243e3e2\AndroidManifest.xml:22:5-27:19
REJECTED from [com.google.android.gms:play-services-tasks:15.0.1] C:\Users\lenovo\.gradle\caches\transforms-1\files-1.1\play-services-tasks-15.0.1.aar\e5d698ac6100ba9c3355a5fffae11f6a\AndroidManifest.xml:7:5-20
REJECTED from [com.google.android.gms:play-services-places-placereport:15.0.1] C:\Users\lenovo\.gradle\caches\transforms-1\files-1.1\play-services-places-placereport-15.0.1.aar\7289bbc51e8a6b64b0e0b998fecc6504\AndroidManifest.xml:22:5-20
REJECTED from [com.google.android.gms:play-services-stats:15.0.1] C:\Users\lenovo\.gradle\caches\transforms-1\files-1.1\play-services-stats-15.0.1.aar\ea3ccd465df538f171b625b9ee5809d0\AndroidManifest.xml:7:5-20
REJECTED from [com.google.firebase:firebase-measurement-connector:16.0.0] C:\Users\lenovo\.gradle\caches\transforms-1\files-1.1\firebase-measurement-connector-16.0.0.aar\6519ecc301c580c2921e3f939576ac6a\AndroidManifest.xml:22:5-23:19
REJECTED from [com.google.android.gms:play-services-ads-identifier:15.0.1] C:\Users\lenovo\.gradle\caches\transforms-1\files-1.1\play-services-ads-identifier-15.0.1.aar\70133f3607e568e7047fce5d72e0275d\AndroidManifest.xml:22:5-20
REJECTED from [com.google.android.gms:play-services-basement:15.0.1] C:\Users\lenovo\.gradle\caches\transforms-1\files-1.1\play-services-basement-15.0.1.aar\67580bd6ba151d000121dfe86953b710\AndroidManifest.xml:22:5-26:19
REJECTED from [com.crashlytics.sdk.android:crashlytics:2.9.3] C:\Users\lenovo\.gradle\caches\transforms-1\files-1.1\crashlytics-2.9.3.aar\b76bcd8a85404b2cb6d534558a368022\AndroidManifest.xml:11:5-17:19
REJECTED from [de.hdodenhof:circleimageview:2.1.0] C:\Users\lenovo\.gradle\caches\transforms-1\files-1.1\circleimageview-2.1.0.aar\8264b1830057ab5fff2442e42c9d7c72\AndroidManifest.xml:9:5-20
REJECTED from [com.crashlytics.sdk.android:crashlytics-core:2.6.3] C:\Users\lenovo\.gradle\caches\transforms-1\files-1.1\crashlytics-core-2.6.3.aar\c8315a1d6691a8ce1a0aade8b6f999d7\AndroidManifest.xml:54:5-20
REJECTED from [com.crashlytics.sdk.android:answers:1.4.2] C:\Users\lenovo\.gradle\caches\transforms-1\files-1.1\answers-1.4.2.aar\f3caeccb3ea249f73c07cf2102db0042\AndroidManifest.xml:11:5-20
REJECTED from [com.crashlytics.sdk.android:beta:1.2.8] C:\Users\lenovo\.gradle\caches\transforms-1\files-1.1\beta-1.2.8.aar\431404b61c8e6b120f3030cb5ccea1b7\AndroidManifest.xml:11:5-20
REJECTED from [io.fabric.sdk.android:fabric:1.4.3] C:\Users\lenovo\.gradle\caches\transforms-1\files-1.1\fabric-1.4.3.aar\a8a1e62e8a66d2f7e1ac39d9606bdfa0\AndroidManifest.xml:31:5-20
REJECTED from [com.google.android.gms:play-services-measurement-base:15.0.4] C:\Users\lenovo\.gradle\caches\transforms-1\files-1.1\play-services-measurement-base-15.0.4.aar\2d1135de5ee252f47c571597a6ce63f6\AndroidManifest.xml:22:5-20
	tools:node
		ADDED from E:\UTTAM_WORKSPACE\new aepsmatm advanced\EasyAEPSAndroidApp\app\src\main\AndroidManifest.xml:39:9-29
	android:supportsRtl
		ADDED from E:\UTTAM_WORKSPACE\new aepsmatm advanced\EasyAEPSAndroidApp\app\src\main\AndroidManifest.xml:37:9-35
	android:label
		INJECTED from E:\UTTAM_WORKSPACE\new aepsmatm advanced\EasyAEPSAndroidApp\app\src\main\AndroidManifest.xml
		ADDED from E:\UTTAM_WORKSPACE\new aepsmatm advanced\EasyAEPSAndroidApp\app\src\main\AndroidManifest.xml:36:9-36
	android:largeHeap
		ADDED from E:\UTTAM_WORKSPACE\new aepsmatm advanced\EasyAEPSAndroidApp\app\src\main\AndroidManifest.xml:40:9-33
	android:allowBackup
		ADDED from E:\UTTAM_WORKSPACE\new aepsmatm advanced\EasyAEPSAndroidApp\app\src\main\AndroidManifest.xml:34:9-35
	android:icon
		INJECTED from E:\UTTAM_WORKSPACE\new aepsmatm advanced\EasyAEPSAndroidApp\app\src\main\AndroidManifest.xml
		ADDED from E:\UTTAM_WORKSPACE\new aepsmatm advanced\EasyAEPSAndroidApp\app\src\main\AndroidManifest.xml:35:9-34
	android:theme
		ADDED from E:\UTTAM_WORKSPACE\new aepsmatm advanced\EasyAEPSAndroidApp\app\src\main\AndroidManifest.xml:38:9-40
	android:name
		ADDED from E:\UTTAM_WORKSPACE\new aepsmatm advanced\EasyAEPSAndroidApp\app\src\main\AndroidManifest.xml:33:9-44
provider#com.finopaytech.finosdk.helpers.FinoFileProvider
INJECTED from E:\UTTAM_WORKSPACE\new aepsmatm advanced\EasyAEPSAndroidApp\app\src\main\AndroidManifest.xml:144:9-153:20
	android:grantUriPermissions
		ADDED from E:\UTTAM_WORKSPACE\new aepsmatm advanced\EasyAEPSAndroidApp\app\src\main\AndroidManifest.xml:148:13-47
	android:authorities
		INJECTED from E:\UTTAM_WORKSPACE\new aepsmatm advanced\EasyAEPSAndroidApp\app\src\main\AndroidManifest.xml
		ADDED from E:\UTTAM_WORKSPACE\new aepsmatm advanced\EasyAEPSAndroidApp\app\src\main\AndroidManifest.xml:146:13-60
	android:exported
		ADDED from E:\UTTAM_WORKSPACE\new aepsmatm advanced\EasyAEPSAndroidApp\app\src\main\AndroidManifest.xml:147:13-37
	android:name
		ADDED from E:\UTTAM_WORKSPACE\new aepsmatm advanced\EasyAEPSAndroidApp\app\src\main\AndroidManifest.xml:145:13-76
manifest
ADDED from E:\UTTAM_WORKSPACE\new aepsmatm advanced\EasyAEPSAndroidApp\app\src\main\AndroidManifest.xml:2:1-158:12
INJECTED from E:\UTTAM_WORKSPACE\new aepsmatm advanced\EasyAEPSAndroidApp\app\src\main\AndroidManifest.xml:2:1-158:12
INJECTED from E:\UTTAM_WORKSPACE\new aepsmatm advanced\EasyAEPSAndroidApp\app\src\main\AndroidManifest.xml:2:1-158:12
INJECTED from E:\UTTAM_WORKSPACE\new aepsmatm advanced\EasyAEPSAndroidApp\app\src\main\AndroidManifest.xml:2:1-158:12
MERGED from [finosdk.aar] C:\Users\lenovo\.gradle\caches\transforms-1\files-1.1\finosdk.aar\6a40f23130a3899ef56f915e9b35aa45\AndroidManifest.xml:2:1-79:12
MERGED from [com.android.support:multidex:1.0.2] C:\Users\lenovo\.gradle\caches\transforms-1\files-1.1\multidex-1.0.2.aar\d2ea6174cf7127eacd1f5d0056998b2a\AndroidManifest.xml:17:1-22:12
MERGED from [com.karumi:dexter:4.2.0] C:\Users\lenovo\.gradle\caches\transforms-1\files-1.1\dexter-4.2.0.aar\5c0279b66a658228aba1e1b297a7826a\AndroidManifest.xml:17:1-32:12
MERGED from [com.android.support:design:27.1.1] C:\Users\lenovo\.gradle\caches\transforms-1\files-1.1\design-27.1.1.aar\63c74f625a35d1272c1c6a406c8a2f1b\AndroidManifest.xml:17:1-22:12
MERGED from [com.github.ganfra:material-spinner:2.0.0] C:\Users\lenovo\.gradle\caches\transforms-1\files-1.1\material-spinner-2.0.0.aar\d7ca5b7d01e430b573077dad6fea514a\AndroidManifest.xml:2:1-10:12
MERGED from [com.github.ravindu1024:android-loadingdialog:1.0.3] C:\Users\lenovo\.gradle\caches\transforms-1\files-1.1\android-loadingdialog-1.0.3.aar\af24d6d30cfc66c5c07ffd7958a61ed5\AndroidManifest.xml:2:1-17:12
MERGED from [com.github.jrvansuita:CheckNewAppVersionAvailable:v1.0.0] C:\Users\lenovo\.gradle\caches\transforms-1\files-1.1\CheckNewAppVersionAvailable-v1.0.0.aar\186af6d8c88ab6e9ec3f650e92475b49\AndroidManifest.xml:2:1-17:12
MERGED from [com.android.support:appcompat-v7:27.1.1] C:\Users\lenovo\.gradle\caches\transforms-1\files-1.1\appcompat-v7-27.1.1.aar\c9ac771cf91b679f5069541754325718\AndroidManifest.xml:17:1-22:12
MERGED from [com.android.support.constraint:constraint-layout:1.1.3] C:\Users\lenovo\.gradle\caches\transforms-1\files-1.1\constraint-layout-1.1.3.aar\af5fa875f7e535bfad087d7ec5552969\AndroidManifest.xml:2:1-11:12
MERGED from [com.github.jaydeep17:datetimepicker:0.0.4] C:\Users\lenovo\.gradle\caches\transforms-1\files-1.1\datetimepicker-0.0.4.aar\85af73fa443f58343fe901475d32ee9c\AndroidManifest.xml:2:1-13:12
MERGED from [com.borax12.materialdaterangepicker:library:1.9] C:\Users\lenovo\.gradle\caches\transforms-1\files-1.1\library-1.9.aar\3ba3d5be713be5e06858046be6377593\AndroidManifest.xml:17:1-30:12
MERGED from [com.google.firebase:firebase-firestore:16.0.0] C:\Users\lenovo\.gradle\caches\transforms-1\files-1.1\firebase-firestore-16.0.0.aar\f381f5dfe9bde1d1e1898429f03afd2d\AndroidManifest.xml:2:1-10:12
MERGED from [com.google.firebase:firebase-auth:16.0.3] C:\Users\lenovo\.gradle\caches\transforms-1\files-1.1\firebase-auth-16.0.3.aar\3ce27c1094f4f1eeb7b6dd82acaba9d5\AndroidManifest.xml:17:1-38:12
MERGED from [com.google.firebase:firebase-database:16.0.1] C:\Users\lenovo\.gradle\caches\transforms-1\files-1.1\firebase-database-16.0.1.aar\8e268d333681f08f0d6e5d9e58a2f65a\AndroidManifest.xml:2:1-8:12
MERGED from [com.google.android.gms:play-services-location:15.0.1] C:\Users\lenovo\.gradle\caches\transforms-1\files-1.1\play-services-location-15.0.1.aar\417d2332272e3b146013a32cb04515de\AndroidManifest.xml:2:1-9:12
MERGED from [com.google.firebase:firebase-core:16.0.0] C:\Users\lenovo\.gradle\caches\transforms-1\files-1.1\firebase-core-16.0.0.aar\300152548f95c28152320e81605f687b\AndroidManifest.xml:2:1-9:12
MERGED from [com.google.firebase:firebase-measurement-connector-impl:16.0.0] C:\Users\lenovo\.gradle\caches\transforms-1\files-1.1\firebase-measurement-connector-impl-16.0.0.aar\82efb2fd65da44e887fab3d03879337d\AndroidManifest.xml:17:1-34:12
MERGED from [com.google.firebase:firebase-analytics:16.0.0] C:\Users\lenovo\.gradle\caches\transforms-1\files-1.1\firebase-analytics-16.0.0.aar\411f5b483684ccbd6775d372d9077eaf\AndroidManifest.xml:17:1-55:12
MERGED from [com.google.firebase:firebase-auth-interop:16.0.0] C:\Users\lenovo\.gradle\caches\transforms-1\files-1.1\firebase-auth-interop-16.0.0.aar\e1446faa06dd217265adc9133f3d3d2c\AndroidManifest.xml:2:1-10:12
MERGED from [com.google.firebase:firebase-database-connection:16.0.1] C:\Users\lenovo\.gradle\caches\transforms-1\files-1.1\firebase-database-connection-16.0.1.aar\fef64fb479c04c1f6d36434d012f7879\AndroidManifest.xml:2:1-10:12
MERGED from [com.google.firebase:firebase-analytics-impl:16.0.0] C:\Users\lenovo\.gradle\caches\transforms-1\files-1.1\firebase-analytics-impl-16.0.0.aar\d47e60e485f4f8d1435768475cc43c02\AndroidManifest.xml:17:1-41:12
MERGED from [com.google.firebase:firebase-iid:16.0.0] C:\Users\lenovo\.gradle\caches\transforms-1\files-1.1\firebase-iid-16.0.0.aar\0037ee74b5b7d2dad6ae8d034afcb809\AndroidManifest.xml:17:1-65:12
MERGED from [com.google.firebase:firebase-common:16.0.0] C:\Users\lenovo\.gradle\caches\transforms-1\files-1.1\firebase-common-16.0.0.aar\546c18ccd1a43491143a89d7a53449b7\AndroidManifest.xml:2:1-16:12
MERGED from [com.google.android.gms:play-services-flags:15.0.1] C:\Users\lenovo\.gradle\caches\transforms-1\files-1.1\play-services-flags-15.0.1.aar\46121e737358513562d0071777fd6c6e\AndroidManifest.xml:17:1-22:12
MERGED from [com.google.firebase:firebase-iid-interop:16.0.0] C:\Users\lenovo\.gradle\caches\transforms-1\files-1.1\firebase-iid-interop-16.0.0.aar\cc88f9488b38a6908bdb6b60387abb90\AndroidManifest.xml:2:1-10:12
MERGED from [com.google.android.gms:play-services-base:15.0.1] C:\Users\lenovo\.gradle\caches\transforms-1\files-1.1\play-services-base-15.0.1.aar\185f9ee284c1e9e4d3e108484243e3e2\AndroidManifest.xml:17:1-29:12
MERGED from [com.google.android.gms:play-services-tasks:15.0.1] C:\Users\lenovo\.gradle\caches\transforms-1\files-1.1\play-services-tasks-15.0.1.aar\e5d698ac6100ba9c3355a5fffae11f6a\AndroidManifest.xml:2:1-9:12
MERGED from [com.google.firebase:firebase-database-collection:15.0.1] C:\Users\lenovo\.gradle\caches\transforms-1\files-1.1\firebase-database-collection-15.0.1.aar\bb46ac8371409a8283b276947d8d67e0\AndroidManifest.xml:2:1-8:12
MERGED from [com.google.android.gms:play-services-places-placereport:15.0.1] C:\Users\lenovo\.gradle\caches\transforms-1\files-1.1\play-services-places-placereport-15.0.1.aar\7289bbc51e8a6b64b0e0b998fecc6504\AndroidManifest.xml:17:1-24:12
MERGED from [com.google.android.gms:play-services-stats:15.0.1] C:\Users\lenovo\.gradle\caches\transforms-1\files-1.1\play-services-stats-15.0.1.aar\ea3ccd465df538f171b625b9ee5809d0\AndroidManifest.xml:2:1-9:12
MERGED from [com.google.firebase:firebase-measurement-connector:16.0.0] C:\Users\lenovo\.gradle\caches\transforms-1\files-1.1\firebase-measurement-connector-16.0.0.aar\6519ecc301c580c2921e3f939576ac6a\AndroidManifest.xml:17:1-25:12
MERGED from [com.google.android.gms:play-services-ads-identifier:15.0.1] C:\Users\lenovo\.gradle\caches\transforms-1\files-1.1\play-services-ads-identifier-15.0.1.aar\70133f3607e568e7047fce5d72e0275d\AndroidManifest.xml:17:1-24:12
MERGED from [com.google.android.gms:play-services-basement:15.0.1] C:\Users\lenovo\.gradle\caches\transforms-1\files-1.1\play-services-basement-15.0.1.aar\67580bd6ba151d000121dfe86953b710\AndroidManifest.xml:17:1-28:12
MERGED from [com.android.support:support-v4:27.1.1] C:\Users\lenovo\.gradle\caches\transforms-1\files-1.1\support-v4-27.1.1.aar\013726ee33239270d569f9d97b571f73\AndroidManifest.xml:17:1-22:12
MERGED from [com.android.support:support-fragment:27.1.1] C:\Users\lenovo\.gradle\caches\transforms-1\files-1.1\support-fragment-27.1.1.aar\ac1520fadc620eb0d172ad6de972a326\AndroidManifest.xml:17:1-22:12
MERGED from [com.android.support:recyclerview-v7:27.1.1] C:\Users\lenovo\.gradle\caches\transforms-1\files-1.1\recyclerview-v7-27.1.1.aar\7be4fec4600ceae1dbf5cc39ed650307\AndroidManifest.xml:17:1-22:12
MERGED from [com.android.support:animated-vector-drawable:27.1.1] C:\Users\lenovo\.gradle\caches\transforms-1\files-1.1\animated-vector-drawable-27.1.1.aar\359543cb015c666578df5b7896560c6b\AndroidManifest.xml:17:1-22:12
MERGED from [com.android.support:support-core-ui:27.1.1] C:\Users\lenovo\.gradle\caches\transforms-1\files-1.1\support-core-ui-27.1.1.aar\bc6c76ab4fa469ed3eff21266ea0b533\AndroidManifest.xml:17:1-22:12
MERGED from [com.android.support:support-core-utils:27.1.1] C:\Users\lenovo\.gradle\caches\transforms-1\files-1.1\support-core-utils-27.1.1.aar\d4a0c5f66900296c8729f01ec11fcbea\AndroidManifest.xml:17:1-22:12
MERGED from [com.android.support:cardview-v7:27.1.1] C:\Users\lenovo\.gradle\caches\transforms-1\files-1.1\cardview-v7-27.1.1.aar\8cc7703ac96e15c9dd9541e291ed5cdf\AndroidManifest.xml:17:1-22:12
MERGED from [com.intuit.sdp:sdp-android:1.0.3] C:\Users\lenovo\.gradle\caches\transforms-1\files-1.1\sdp-android-1.0.3.aar\0718eb0b87e6ef83b9eb261aff0bd3be\AndroidManifest.xml:2:1-11:12
MERGED from [com.jakewharton:butterknife:8.5.1] C:\Users\lenovo\.gradle\caches\transforms-1\files-1.1\butterknife-8.5.1.aar\d8d4cd34d85575655f74cb121bc10488\AndroidManifest.xml:2:1-7:12
MERGED from [net.cachapa.expandablelayout:expandablelayout:2.9.2] C:\Users\lenovo\.gradle\caches\transforms-1\files-1.1\expandablelayout-2.9.2.aar\c3d107950b56c67ebff36a0d16fc51cf\AndroidManifest.xml:2:1-12:12
MERGED from [com.crashlytics.sdk.android:crashlytics:2.9.3] C:\Users\lenovo\.gradle\caches\transforms-1\files-1.1\crashlytics-2.9.3.aar\b76bcd8a85404b2cb6d534558a368022\AndroidManifest.xml:2:1-19:12
MERGED from [com.moos:Material-ProgressView:1.0.6] C:\Users\lenovo\.gradle\caches\transforms-1\files-1.1\Material-ProgressView-1.0.6.aar\0a136cc85bc5e6f812cfbd3b78da53be\AndroidManifest.xml:2:1-11:12
MERGED from [de.hdodenhof:circleimageview:2.1.0] C:\Users\lenovo\.gradle\caches\transforms-1\files-1.1\circleimageview-2.1.0.aar\8264b1830057ab5fff2442e42c9d7c72\AndroidManifest.xml:2:1-11:12
MERGED from [com.android.support:support-vector-drawable:27.1.1] C:\Users\lenovo\.gradle\caches\transforms-1\files-1.1\support-vector-drawable-27.1.1.aar\9fdccfe2988c9f1a2537452d895ccf6c\AndroidManifest.xml:17:1-22:12
MERGED from [com.android.support:transition:27.1.1] C:\Users\lenovo\.gradle\caches\transforms-1\files-1.1\transition-27.1.1.aar\10334a6c3269aaf0d014a4ae60c25203\AndroidManifest.xml:17:1-22:12
MERGED from [com.android.support:support-media-compat:27.1.1] C:\Users\lenovo\.gradle\caches\transforms-1\files-1.1\support-media-compat-27.1.1.aar\3a1ffff95eddf2a63f4657316db3889c\AndroidManifest.xml:17:1-22:12
MERGED from [com.android.support:support-compat:27.1.1] C:\Users\lenovo\.gradle\caches\transforms-1\files-1.1\support-compat-27.1.1.aar\79672be4cd50a9cd60a2ca02a6b5c46f\AndroidManifest.xml:17:1-22:12
MERGED from [android.arch.lifecycle:runtime:1.1.0] C:\Users\lenovo\.gradle\caches\transforms-1\files-1.1\runtime-1.1.0.aar\85298f782846d6da922355280d9cc1ae\AndroidManifest.xml:17:1-22:12
MERGED from [android.arch.lifecycle:livedata-core:1.1.0] C:\Users\lenovo\.gradle\caches\transforms-1\files-1.1\livedata-core-1.1.0.aar\3d00950aaa7253e8a5c7b64da112449b\AndroidManifest.xml:17:1-22:12
MERGED from [android.arch.core:runtime:1.1.0] C:\Users\lenovo\.gradle\caches\transforms-1\files-1.1\runtime-1.1.0.aar\cfda9d00b348225b7b2434ba2f466c28\AndroidManifest.xml:17:1-22:12
MERGED from [com.crashlytics.sdk.android:crashlytics-core:2.6.3] C:\Users\lenovo\.gradle\caches\transforms-1\files-1.1\crashlytics-core-2.6.3.aar\c8315a1d6691a8ce1a0aade8b6f999d7\AndroidManifest.xml:45:1-56:12
MERGED from [com.crashlytics.sdk.android:answers:1.4.2] C:\Users\lenovo\.gradle\caches\transforms-1\files-1.1\answers-1.4.2.aar\f3caeccb3ea249f73c07cf2102db0042\AndroidManifest.xml:2:1-13:12
MERGED from [com.crashlytics.sdk.android:beta:1.2.8] C:\Users\lenovo\.gradle\caches\transforms-1\files-1.1\beta-1.2.8.aar\431404b61c8e6b120f3030cb5ccea1b7\AndroidManifest.xml:2:1-13:12
MERGED from [io.fabric.sdk.android:fabric:1.4.3] C:\Users\lenovo\.gradle\caches\transforms-1\files-1.1\fabric-1.4.3.aar\a8a1e62e8a66d2f7e1ac39d9606bdfa0\AndroidManifest.xml:22:1-33:12
MERGED from [com.google.firebase:protolite-well-known-types:15.0.0] C:\Users\lenovo\.gradle\caches\transforms-1\files-1.1\protolite-well-known-types-15.0.0.aar\3f49fbddbfa24f4559436e48fa87753b\AndroidManifest.xml:2:1-11:12
MERGED from [android.arch.lifecycle:viewmodel:1.1.0] C:\Users\lenovo\.gradle\caches\transforms-1\files-1.1\viewmodel-1.1.0.aar\7378e15627542136b5d2bd1bed9bb92f\AndroidManifest.xml:17:1-22:12
MERGED from [com.google.android.gms:play-services-measurement-base:15.0.4] C:\Users\lenovo\.gradle\caches\transforms-1\files-1.1\play-services-measurement-base-15.0.4.aar\2d1135de5ee252f47c571597a6ce63f6\AndroidManifest.xml:17:1-24:12
INJECTED from E:\UTTAM_WORKSPACE\new aepsmatm advanced\EasyAEPSAndroidApp\app\src\main\AndroidManifest.xml:2:1-158:12
INJECTED from E:\UTTAM_WORKSPACE\new aepsmatm advanced\EasyAEPSAndroidApp\app\src\main\AndroidManifest.xml:2:1-158:12
INJECTED from E:\UTTAM_WORKSPACE\new aepsmatm advanced\EasyAEPSAndroidApp\app\src\main\AndroidManifest.xml:2:1-158:12
	package
		ADDED from E:\UTTAM_WORKSPACE\new aepsmatm advanced\EasyAEPSAndroidApp\app\src\main\AndroidManifest.xml:4:5-31
		INJECTED from E:\UTTAM_WORKSPACE\new aepsmatm advanced\EasyAEPSAndroidApp\app\src\main\AndroidManifest.xml
		INJECTED from E:\UTTAM_WORKSPACE\new aepsmatm advanced\EasyAEPSAndroidApp\app\src\main\AndroidManifest.xml
	android:versionName
		INJECTED from E:\UTTAM_WORKSPACE\new aepsmatm advanced\EasyAEPSAndroidApp\app\src\main\AndroidManifest.xml
		ADDED from E:\UTTAM_WORKSPACE\new aepsmatm advanced\EasyAEPSAndroidApp\app\src\main\AndroidManifest.xml:2:1-158:12
		INJECTED from E:\UTTAM_WORKSPACE\new aepsmatm advanced\EasyAEPSAndroidApp\app\src\main\AndroidManifest.xml
	xmlns:tools
		ADDED from E:\UTTAM_WORKSPACE\new aepsmatm advanced\EasyAEPSAndroidApp\app\src\main\AndroidManifest.xml:3:5-51
	android:versionCode
		INJECTED from E:\UTTAM_WORKSPACE\new aepsmatm advanced\EasyAEPSAndroidApp\app\src\main\AndroidManifest.xml
		ADDED from E:\UTTAM_WORKSPACE\new aepsmatm advanced\EasyAEPSAndroidApp\app\src\main\AndroidManifest.xml:2:1-158:12
		INJECTED from E:\UTTAM_WORKSPACE\new aepsmatm advanced\EasyAEPSAndroidApp\app\src\main\AndroidManifest.xml
	xmlns:android
		ADDED from E:\UTTAM_WORKSPACE\new aepsmatm advanced\EasyAEPSAndroidApp\app\src\main\AndroidManifest.xml:2:11-69
uses-permission#android.permission.ACCESS_NETWORK_STATE
ADDED from E:\UTTAM_WORKSPACE\new aepsmatm advanced\EasyAEPSAndroidApp\app\src\main\AndroidManifest.xml:6:5-79
MERGED from [finosdk.aar] C:\Users\lenovo\.gradle\caches\transforms-1\files-1.1\finosdk.aar\6a40f23130a3899ef56f915e9b35aa45\AndroidManifest.xml:28:5-79
MERGED from [finosdk.aar] C:\Users\lenovo\.gradle\caches\transforms-1\files-1.1\finosdk.aar\6a40f23130a3899ef56f915e9b35aa45\AndroidManifest.xml:28:5-79
MERGED from [com.google.firebase:firebase-measurement-connector-impl:16.0.0] C:\Users\lenovo\.gradle\caches\transforms-1\files-1.1\firebase-measurement-connector-impl-16.0.0.aar\82efb2fd65da44e887fab3d03879337d\AndroidManifest.xml:23:5-79
MERGED from [com.google.firebase:firebase-measurement-connector-impl:16.0.0] C:\Users\lenovo\.gradle\caches\transforms-1\files-1.1\firebase-measurement-connector-impl-16.0.0.aar\82efb2fd65da44e887fab3d03879337d\AndroidManifest.xml:23:5-79
MERGED from [com.google.firebase:firebase-analytics:16.0.0] C:\Users\lenovo\.gradle\caches\transforms-1\files-1.1\firebase-analytics-16.0.0.aar\411f5b483684ccbd6775d372d9077eaf\AndroidManifest.xml:24:5-79
MERGED from [com.google.firebase:firebase-analytics:16.0.0] C:\Users\lenovo\.gradle\caches\transforms-1\files-1.1\firebase-analytics-16.0.0.aar\411f5b483684ccbd6775d372d9077eaf\AndroidManifest.xml:24:5-79
MERGED from [com.google.firebase:firebase-analytics-impl:16.0.0] C:\Users\lenovo\.gradle\caches\transforms-1\files-1.1\firebase-analytics-impl-16.0.0.aar\d47e60e485f4f8d1435768475cc43c02\AndroidManifest.xml:24:5-79
MERGED from [com.google.firebase:firebase-analytics-impl:16.0.0] C:\Users\lenovo\.gradle\caches\transforms-1\files-1.1\firebase-analytics-impl-16.0.0.aar\d47e60e485f4f8d1435768475cc43c02\AndroidManifest.xml:24:5-79
MERGED from [com.google.firebase:firebase-iid:16.0.0] C:\Users\lenovo\.gradle\caches\transforms-1\files-1.1\firebase-iid-16.0.0.aar\0037ee74b5b7d2dad6ae8d034afcb809\AndroidManifest.xml:22:5-79
MERGED from [com.google.firebase:firebase-iid:16.0.0] C:\Users\lenovo\.gradle\caches\transforms-1\files-1.1\firebase-iid-16.0.0.aar\0037ee74b5b7d2dad6ae8d034afcb809\AndroidManifest.xml:22:5-79
	android:name
		ADDED from E:\UTTAM_WORKSPACE\new aepsmatm advanced\EasyAEPSAndroidApp\app\src\main\AndroidManifest.xml:6:22-76
uses-permission#android.permission.INTERNET
ADDED from E:\UTTAM_WORKSPACE\new aepsmatm advanced\EasyAEPSAndroidApp\app\src\main\AndroidManifest.xml:7:5-67
MERGED from [finosdk.aar] C:\Users\lenovo\.gradle\caches\transforms-1\files-1.1\finosdk.aar\6a40f23130a3899ef56f915e9b35aa45\AndroidManifest.xml:23:5-67
MERGED from [finosdk.aar] C:\Users\lenovo\.gradle\caches\transforms-1\files-1.1\finosdk.aar\6a40f23130a3899ef56f915e9b35aa45\AndroidManifest.xml:23:5-67
MERGED from [com.google.firebase:firebase-measurement-connector-impl:16.0.0] C:\Users\lenovo\.gradle\caches\transforms-1\files-1.1\firebase-measurement-connector-impl-16.0.0.aar\82efb2fd65da44e887fab3d03879337d\AndroidManifest.xml:22:5-67
MERGED from [com.google.firebase:firebase-measurement-connector-impl:16.0.0] C:\Users\lenovo\.gradle\caches\transforms-1\files-1.1\firebase-measurement-connector-impl-16.0.0.aar\82efb2fd65da44e887fab3d03879337d\AndroidManifest.xml:22:5-67
MERGED from [com.google.firebase:firebase-analytics:16.0.0] C:\Users\lenovo\.gradle\caches\transforms-1\files-1.1\firebase-analytics-16.0.0.aar\411f5b483684ccbd6775d372d9077eaf\AndroidManifest.xml:23:5-67
MERGED from [com.google.firebase:firebase-analytics:16.0.0] C:\Users\lenovo\.gradle\caches\transforms-1\files-1.1\firebase-analytics-16.0.0.aar\411f5b483684ccbd6775d372d9077eaf\AndroidManifest.xml:23:5-67
MERGED from [com.google.firebase:firebase-database-connection:16.0.1] C:\Users\lenovo\.gradle\caches\transforms-1\files-1.1\firebase-database-connection-16.0.1.aar\fef64fb479c04c1f6d36434d012f7879\AndroidManifest.xml:8:5-67
MERGED from [com.google.firebase:firebase-database-connection:16.0.1] C:\Users\lenovo\.gradle\caches\transforms-1\files-1.1\firebase-database-connection-16.0.1.aar\fef64fb479c04c1f6d36434d012f7879\AndroidManifest.xml:8:5-67
MERGED from [com.google.firebase:firebase-analytics-impl:16.0.0] C:\Users\lenovo\.gradle\caches\transforms-1\files-1.1\firebase-analytics-impl-16.0.0.aar\d47e60e485f4f8d1435768475cc43c02\AndroidManifest.xml:23:5-67
MERGED from [com.google.firebase:firebase-analytics-impl:16.0.0] C:\Users\lenovo\.gradle\caches\transforms-1\files-1.1\firebase-analytics-impl-16.0.0.aar\d47e60e485f4f8d1435768475cc43c02\AndroidManifest.xml:23:5-67
MERGED from [com.google.firebase:firebase-iid:16.0.0] C:\Users\lenovo\.gradle\caches\transforms-1\files-1.1\firebase-iid-16.0.0.aar\0037ee74b5b7d2dad6ae8d034afcb809\AndroidManifest.xml:23:5-67
MERGED from [com.google.firebase:firebase-iid:16.0.0] C:\Users\lenovo\.gradle\caches\transforms-1\files-1.1\firebase-iid-16.0.0.aar\0037ee74b5b7d2dad6ae8d034afcb809\AndroidManifest.xml:23:5-67
MERGED from [com.crashlytics.sdk.android:crashlytics:2.9.3] C:\Users\lenovo\.gradle\caches\transforms-1\files-1.1\crashlytics-2.9.3.aar\b76bcd8a85404b2cb6d534558a368022\AndroidManifest.xml:9:5-67
MERGED from [com.crashlytics.sdk.android:crashlytics:2.9.3] C:\Users\lenovo\.gradle\caches\transforms-1\files-1.1\crashlytics-2.9.3.aar\b76bcd8a85404b2cb6d534558a368022\AndroidManifest.xml:9:5-67
MERGED from [com.crashlytics.sdk.android:crashlytics-core:2.6.3] C:\Users\lenovo\.gradle\caches\transforms-1\files-1.1\crashlytics-core-2.6.3.aar\c8315a1d6691a8ce1a0aade8b6f999d7\AndroidManifest.xml:52:5-67
MERGED from [com.crashlytics.sdk.android:crashlytics-core:2.6.3] C:\Users\lenovo\.gradle\caches\transforms-1\files-1.1\crashlytics-core-2.6.3.aar\c8315a1d6691a8ce1a0aade8b6f999d7\AndroidManifest.xml:52:5-67
MERGED from [com.crashlytics.sdk.android:answers:1.4.2] C:\Users\lenovo\.gradle\caches\transforms-1\files-1.1\answers-1.4.2.aar\f3caeccb3ea249f73c07cf2102db0042\AndroidManifest.xml:9:5-67
MERGED from [com.crashlytics.sdk.android:answers:1.4.2] C:\Users\lenovo\.gradle\caches\transforms-1\files-1.1\answers-1.4.2.aar\f3caeccb3ea249f73c07cf2102db0042\AndroidManifest.xml:9:5-67
MERGED from [com.crashlytics.sdk.android:beta:1.2.8] C:\Users\lenovo\.gradle\caches\transforms-1\files-1.1\beta-1.2.8.aar\431404b61c8e6b120f3030cb5ccea1b7\AndroidManifest.xml:9:5-67
MERGED from [com.crashlytics.sdk.android:beta:1.2.8] C:\Users\lenovo\.gradle\caches\transforms-1\files-1.1\beta-1.2.8.aar\431404b61c8e6b120f3030cb5ccea1b7\AndroidManifest.xml:9:5-67
MERGED from [io.fabric.sdk.android:fabric:1.4.3] C:\Users\lenovo\.gradle\caches\transforms-1\files-1.1\fabric-1.4.3.aar\a8a1e62e8a66d2f7e1ac39d9606bdfa0\AndroidManifest.xml:29:5-67
MERGED from [io.fabric.sdk.android:fabric:1.4.3] C:\Users\lenovo\.gradle\caches\transforms-1\files-1.1\fabric-1.4.3.aar\a8a1e62e8a66d2f7e1ac39d9606bdfa0\AndroidManifest.xml:29:5-67
	android:name
		ADDED from E:\UTTAM_WORKSPACE\new aepsmatm advanced\EasyAEPSAndroidApp\app\src\main\AndroidManifest.xml:7:22-64
uses-permission#android.permission.ACCESS_WIFI_STATE
ADDED from E:\UTTAM_WORKSPACE\new aepsmatm advanced\EasyAEPSAndroidApp\app\src\main\AndroidManifest.xml:8:5-76
MERGED from [finosdk.aar] C:\Users\lenovo\.gradle\caches\transforms-1\files-1.1\finosdk.aar\6a40f23130a3899ef56f915e9b35aa45\AndroidManifest.xml:26:5-76
MERGED from [finosdk.aar] C:\Users\lenovo\.gradle\caches\transforms-1\files-1.1\finosdk.aar\6a40f23130a3899ef56f915e9b35aa45\AndroidManifest.xml:26:5-76
	android:name
		ADDED from E:\UTTAM_WORKSPACE\new aepsmatm advanced\EasyAEPSAndroidApp\app\src\main\AndroidManifest.xml:8:22-73
uses-permission#android.permission.CHANGE_NETWORK_STATE
ADDED from E:\UTTAM_WORKSPACE\new aepsmatm advanced\EasyAEPSAndroidApp\app\src\main\AndroidManifest.xml:9:5-79
	android:name
		ADDED from E:\UTTAM_WORKSPACE\new aepsmatm advanced\EasyAEPSAndroidApp\app\src\main\AndroidManifest.xml:9:22-76
uses-permission#android.permission.WRITE_EXTERNAL_STORAGE
ADDED from E:\UTTAM_WORKSPACE\new aepsmatm advanced\EasyAEPSAndroidApp\app\src\main\AndroidManifest.xml:10:5-81
MERGED from [finosdk.aar] C:\Users\lenovo\.gradle\caches\transforms-1\files-1.1\finosdk.aar\6a40f23130a3899ef56f915e9b35aa45\AndroidManifest.xml:27:5-81
MERGED from [finosdk.aar] C:\Users\lenovo\.gradle\caches\transforms-1\files-1.1\finosdk.aar\6a40f23130a3899ef56f915e9b35aa45\AndroidManifest.xml:27:5-81
	android:name
		ADDED from E:\UTTAM_WORKSPACE\new aepsmatm advanced\EasyAEPSAndroidApp\app\src\main\AndroidManifest.xml:10:22-78
uses-permission#android.permission.READ_EXTERNAL_STORAGE
ADDED from E:\UTTAM_WORKSPACE\new aepsmatm advanced\EasyAEPSAndroidApp\app\src\main\AndroidManifest.xml:11:5-80
MERGED from [finosdk.aar] C:\Users\lenovo\.gradle\caches\transforms-1\files-1.1\finosdk.aar\6a40f23130a3899ef56f915e9b35aa45\AndroidManifest.xml:32:5-80
MERGED from [finosdk.aar] C:\Users\lenovo\.gradle\caches\transforms-1\files-1.1\finosdk.aar\6a40f23130a3899ef56f915e9b35aa45\AndroidManifest.xml:32:5-80
	android:name
		ADDED from E:\UTTAM_WORKSPACE\new aepsmatm advanced\EasyAEPSAndroidApp\app\src\main\AndroidManifest.xml:11:22-77
uses-permission#android.permission.VIBRATE
ADDED from E:\UTTAM_WORKSPACE\new aepsmatm advanced\EasyAEPSAndroidApp\app\src\main\AndroidManifest.xml:12:5-66
MERGED from [com.borax12.materialdaterangepicker:library:1.9] C:\Users\lenovo\.gradle\caches\transforms-1\files-1.1\library-1.9.aar\3ba3d5be713be5e06858046be6377593\AndroidManifest.xml:26:5-66
MERGED from [com.borax12.materialdaterangepicker:library:1.9] C:\Users\lenovo\.gradle\caches\transforms-1\files-1.1\library-1.9.aar\3ba3d5be713be5e06858046be6377593\AndroidManifest.xml:26:5-66
	android:name
		ADDED from E:\UTTAM_WORKSPACE\new aepsmatm advanced\EasyAEPSAndroidApp\app\src\main\AndroidManifest.xml:12:22-63
uses-permission#android.permission.BLUETOOTH_ADMIN
ADDED from E:\UTTAM_WORKSPACE\new aepsmatm advanced\EasyAEPSAndroidApp\app\src\main\AndroidManifest.xml:13:5-74
MERGED from [finosdk.aar] C:\Users\lenovo\.gradle\caches\transforms-1\files-1.1\finosdk.aar\6a40f23130a3899ef56f915e9b35aa45\AndroidManifest.xml:21:5-74
MERGED from [finosdk.aar] C:\Users\lenovo\.gradle\caches\transforms-1\files-1.1\finosdk.aar\6a40f23130a3899ef56f915e9b35aa45\AndroidManifest.xml:21:5-74
	android:name
		ADDED from E:\UTTAM_WORKSPACE\new aepsmatm advanced\EasyAEPSAndroidApp\app\src\main\AndroidManifest.xml:13:22-71
uses-permission#android.permission.BLUETOOTH
ADDED from E:\UTTAM_WORKSPACE\new aepsmatm advanced\EasyAEPSAndroidApp\app\src\main\AndroidManifest.xml:14:5-68
MERGED from [finosdk.aar] C:\Users\lenovo\.gradle\caches\transforms-1\files-1.1\finosdk.aar\6a40f23130a3899ef56f915e9b35aa45\AndroidManifest.xml:22:5-68
MERGED from [finosdk.aar] C:\Users\lenovo\.gradle\caches\transforms-1\files-1.1\finosdk.aar\6a40f23130a3899ef56f915e9b35aa45\AndroidManifest.xml:22:5-68
	android:name
		ADDED from E:\UTTAM_WORKSPACE\new aepsmatm advanced\EasyAEPSAndroidApp\app\src\main\AndroidManifest.xml:14:22-65
uses-permission#android.permission.RECORD_AUDIO
ADDED from E:\UTTAM_WORKSPACE\new aepsmatm advanced\EasyAEPSAndroidApp\app\src\main\AndroidManifest.xml:15:5-71
	android:name
		ADDED from E:\UTTAM_WORKSPACE\new aepsmatm advanced\EasyAEPSAndroidApp\app\src\main\AndroidManifest.xml:15:22-68
uses-permission#android.permission.MODIFY_AUDIO_SETTINGS
ADDED from E:\UTTAM_WORKSPACE\new aepsmatm advanced\EasyAEPSAndroidApp\app\src\main\AndroidManifest.xml:16:5-80
	android:name
		ADDED from E:\UTTAM_WORKSPACE\new aepsmatm advanced\EasyAEPSAndroidApp\app\src\main\AndroidManifest.xml:16:22-77
uses-permission#android.permission.WAKE_LOCK
ADDED from E:\UTTAM_WORKSPACE\new aepsmatm advanced\EasyAEPSAndroidApp\app\src\main\AndroidManifest.xml:17:5-68
MERGED from [finosdk.aar] C:\Users\lenovo\.gradle\caches\transforms-1\files-1.1\finosdk.aar\6a40f23130a3899ef56f915e9b35aa45\AndroidManifest.xml:31:5-68
MERGED from [finosdk.aar] C:\Users\lenovo\.gradle\caches\transforms-1\files-1.1\finosdk.aar\6a40f23130a3899ef56f915e9b35aa45\AndroidManifest.xml:31:5-68
MERGED from [com.google.firebase:firebase-measurement-connector-impl:16.0.0] C:\Users\lenovo\.gradle\caches\transforms-1\files-1.1\firebase-measurement-connector-impl-16.0.0.aar\82efb2fd65da44e887fab3d03879337d\AndroidManifest.xml:24:5-68
MERGED from [com.google.firebase:firebase-measurement-connector-impl:16.0.0] C:\Users\lenovo\.gradle\caches\transforms-1\files-1.1\firebase-measurement-connector-impl-16.0.0.aar\82efb2fd65da44e887fab3d03879337d\AndroidManifest.xml:24:5-68
MERGED from [com.google.firebase:firebase-analytics:16.0.0] C:\Users\lenovo\.gradle\caches\transforms-1\files-1.1\firebase-analytics-16.0.0.aar\411f5b483684ccbd6775d372d9077eaf\AndroidManifest.xml:25:5-68
MERGED from [com.google.firebase:firebase-analytics:16.0.0] C:\Users\lenovo\.gradle\caches\transforms-1\files-1.1\firebase-analytics-16.0.0.aar\411f5b483684ccbd6775d372d9077eaf\AndroidManifest.xml:25:5-68
MERGED from [com.google.firebase:firebase-analytics-impl:16.0.0] C:\Users\lenovo\.gradle\caches\transforms-1\files-1.1\firebase-analytics-impl-16.0.0.aar\d47e60e485f4f8d1435768475cc43c02\AndroidManifest.xml:25:5-68
MERGED from [com.google.firebase:firebase-analytics-impl:16.0.0] C:\Users\lenovo\.gradle\caches\transforms-1\files-1.1\firebase-analytics-impl-16.0.0.aar\d47e60e485f4f8d1435768475cc43c02\AndroidManifest.xml:25:5-68
MERGED from [com.google.firebase:firebase-iid:16.0.0] C:\Users\lenovo\.gradle\caches\transforms-1\files-1.1\firebase-iid-16.0.0.aar\0037ee74b5b7d2dad6ae8d034afcb809\AndroidManifest.xml:24:5-68
MERGED from [com.google.firebase:firebase-iid:16.0.0] C:\Users\lenovo\.gradle\caches\transforms-1\files-1.1\firebase-iid-16.0.0.aar\0037ee74b5b7d2dad6ae8d034afcb809\AndroidManifest.xml:24:5-68
	android:name
		ADDED from E:\UTTAM_WORKSPACE\new aepsmatm advanced\EasyAEPSAndroidApp\app\src\main\AndroidManifest.xml:17:22-65
uses-permission#android.permission.READ_PHONE_STATE
ADDED from E:\UTTAM_WORKSPACE\new aepsmatm advanced\EasyAEPSAndroidApp\app\src\main\AndroidManifest.xml:18:5-75
MERGED from [finosdk.aar] C:\Users\lenovo\.gradle\caches\transforms-1\files-1.1\finosdk.aar\6a40f23130a3899ef56f915e9b35aa45\AndroidManifest.xml:24:5-75
MERGED from [finosdk.aar] C:\Users\lenovo\.gradle\caches\transforms-1\files-1.1\finosdk.aar\6a40f23130a3899ef56f915e9b35aa45\AndroidManifest.xml:24:5-75
	android:name
		ADDED from E:\UTTAM_WORKSPACE\new aepsmatm advanced\EasyAEPSAndroidApp\app\src\main\AndroidManifest.xml:18:22-72
uses-permission#android.permission.ACCESS_COARSE_LOCATION
ADDED from E:\UTTAM_WORKSPACE\new aepsmatm advanced\EasyAEPSAndroidApp\app\src\main\AndroidManifest.xml:19:5-81
MERGED from [finosdk.aar] C:\Users\lenovo\.gradle\caches\transforms-1\files-1.1\finosdk.aar\6a40f23130a3899ef56f915e9b35aa45\AndroidManifest.xml:29:5-81
MERGED from [finosdk.aar] C:\Users\lenovo\.gradle\caches\transforms-1\files-1.1\finosdk.aar\6a40f23130a3899ef56f915e9b35aa45\AndroidManifest.xml:29:5-81
	android:name
		ADDED from E:\UTTAM_WORKSPACE\new aepsmatm advanced\EasyAEPSAndroidApp\app\src\main\AndroidManifest.xml:19:22-78
uses-permission#android.permission.b1
ADDED from E:\UTTAM_WORKSPACE\new aepsmatm advanced\EasyAEPSAndroidApp\app\src\main\AndroidManifest.xml:20:5-61
	android:name
		ADDED from E:\UTTAM_WORKSPACE\new aepsmatm advanced\EasyAEPSAndroidApp\app\src\main\AndroidManifest.xml:20:22-58
uses-permission#android.permission.ACCESS_FINE_LOCATION
ADDED from E:\UTTAM_WORKSPACE\new aepsmatm advanced\EasyAEPSAndroidApp\app\src\main\AndroidManifest.xml:21:5-79
MERGED from [finosdk.aar] C:\Users\lenovo\.gradle\caches\transforms-1\files-1.1\finosdk.aar\6a40f23130a3899ef56f915e9b35aa45\AndroidManifest.xml:30:5-79
MERGED from [finosdk.aar] C:\Users\lenovo\.gradle\caches\transforms-1\files-1.1\finosdk.aar\6a40f23130a3899ef56f915e9b35aa45\AndroidManifest.xml:30:5-79
	android:name
		ADDED from E:\UTTAM_WORKSPACE\new aepsmatm advanced\EasyAEPSAndroidApp\app\src\main\AndroidManifest.xml:21:22-76
uses-permission#android.permission.REQUEST_INSTALL_PACKAGES
ADDED from E:\UTTAM_WORKSPACE\new aepsmatm advanced\EasyAEPSAndroidApp\app\src\main\AndroidManifest.xml:22:5-83
MERGED from [finosdk.aar] C:\Users\lenovo\.gradle\caches\transforms-1\files-1.1\finosdk.aar\6a40f23130a3899ef56f915e9b35aa45\AndroidManifest.xml:33:5-83
MERGED from [finosdk.aar] C:\Users\lenovo\.gradle\caches\transforms-1\files-1.1\finosdk.aar\6a40f23130a3899ef56f915e9b35aa45\AndroidManifest.xml:33:5-83
	android:name
		ADDED from E:\UTTAM_WORKSPACE\new aepsmatm advanced\EasyAEPSAndroidApp\app\src\main\AndroidManifest.xml:22:22-80
uses-permission#android.permission.WRITE_SETTINGS
ADDED from E:\UTTAM_WORKSPACE\new aepsmatm advanced\EasyAEPSAndroidApp\app\src\main\AndroidManifest.xml:23:5-24:47
MERGED from [finosdk.aar] C:\Users\lenovo\.gradle\caches\transforms-1\files-1.1\finosdk.aar\6a40f23130a3899ef56f915e9b35aa45\AndroidManifest.xml:25:5-73
MERGED from [finosdk.aar] C:\Users\lenovo\.gradle\caches\transforms-1\files-1.1\finosdk.aar\6a40f23130a3899ef56f915e9b35aa45\AndroidManifest.xml:25:5-73
	tools:ignore
		ADDED from E:\UTTAM_WORKSPACE\new aepsmatm advanced\EasyAEPSAndroidApp\app\src\main\AndroidManifest.xml:24:9-44
	android:name
		ADDED from E:\UTTAM_WORKSPACE\new aepsmatm advanced\EasyAEPSAndroidApp\app\src\main\AndroidManifest.xml:23:22-70
uses-feature#android.hardware.bluetooth
ADDED from E:\UTTAM_WORKSPACE\new aepsmatm advanced\EasyAEPSAndroidApp\app\src\main\AndroidManifest.xml:28:5-30:35
MERGED from [finosdk.aar] C:\Users\lenovo\.gradle\caches\transforms-1\files-1.1\finosdk.aar\6a40f23130a3899ef56f915e9b35aa45\AndroidManifest.xml:35:5-37:35
MERGED from [finosdk.aar] C:\Users\lenovo\.gradle\caches\transforms-1\files-1.1\finosdk.aar\6a40f23130a3899ef56f915e9b35aa45\AndroidManifest.xml:35:5-37:35
	android:required
		ADDED from E:\UTTAM_WORKSPACE\new aepsmatm advanced\EasyAEPSAndroidApp\app\src\main\AndroidManifest.xml:30:9-32
	android:name
		ADDED from E:\UTTAM_WORKSPACE\new aepsmatm advanced\EasyAEPSAndroidApp\app\src\main\AndroidManifest.xml:29:9-50
uses-sdk
INJECTED from E:\UTTAM_WORKSPACE\new aepsmatm advanced\EasyAEPSAndroidApp\app\src\main\AndroidManifest.xml reason: use-sdk injection requested
INJECTED from E:\UTTAM_WORKSPACE\new aepsmatm advanced\EasyAEPSAndroidApp\app\src\main\AndroidManifest.xml
INJECTED from E:\UTTAM_WORKSPACE\new aepsmatm advanced\EasyAEPSAndroidApp\app\src\main\AndroidManifest.xml
MERGED from [finosdk.aar] C:\Users\lenovo\.gradle\caches\transforms-1\files-1.1\finosdk.aar\6a40f23130a3899ef56f915e9b35aa45\AndroidManifest.xml:8:5-10:41
MERGED from [finosdk.aar] C:\Users\lenovo\.gradle\caches\transforms-1\files-1.1\finosdk.aar\6a40f23130a3899ef56f915e9b35aa45\AndroidManifest.xml:8:5-10:41
MERGED from [com.android.support:multidex:1.0.2] C:\Users\lenovo\.gradle\caches\transforms-1\files-1.1\multidex-1.0.2.aar\d2ea6174cf7127eacd1f5d0056998b2a\AndroidManifest.xml:20:5-43
MERGED from [com.android.support:multidex:1.0.2] C:\Users\lenovo\.gradle\caches\transforms-1\files-1.1\multidex-1.0.2.aar\d2ea6174cf7127eacd1f5d0056998b2a\AndroidManifest.xml:20:5-43
MERGED from [com.karumi:dexter:4.2.0] C:\Users\lenovo\.gradle\caches\transforms-1\files-1.1\dexter-4.2.0.aar\5c0279b66a658228aba1e1b297a7826a\AndroidManifest.xml:22:5-24:41
MERGED from [com.karumi:dexter:4.2.0] C:\Users\lenovo\.gradle\caches\transforms-1\files-1.1\dexter-4.2.0.aar\5c0279b66a658228aba1e1b297a7826a\AndroidManifest.xml:22:5-24:41
MERGED from [com.android.support:design:27.1.1] C:\Users\lenovo\.gradle\caches\transforms-1\files-1.1\design-27.1.1.aar\63c74f625a35d1272c1c6a406c8a2f1b\AndroidManifest.xml:20:5-44
MERGED from [com.android.support:design:27.1.1] C:\Users\lenovo\.gradle\caches\transforms-1\files-1.1\design-27.1.1.aar\63c74f625a35d1272c1c6a406c8a2f1b\AndroidManifest.xml:20:5-44
MERGED from [com.github.ganfra:material-spinner:2.0.0] C:\Users\lenovo\.gradle\caches\transforms-1\files-1.1\material-spinner-2.0.0.aar\d7ca5b7d01e430b573077dad6fea514a\AndroidManifest.xml:6:5-8:41
MERGED from [com.github.ganfra:material-spinner:2.0.0] C:\Users\lenovo\.gradle\caches\transforms-1\files-1.1\material-spinner-2.0.0.aar\d7ca5b7d01e430b573077dad6fea514a\AndroidManifest.xml:6:5-8:41
MERGED from [com.github.ravindu1024:android-loadingdialog:1.0.3] C:\Users\lenovo\.gradle\caches\transforms-1\files-1.1\android-loadingdialog-1.0.3.aar\af24d6d30cfc66c5c07ffd7958a61ed5\AndroidManifest.xml:7:5-9:41
MERGED from [com.github.ravindu1024:android-loadingdialog:1.0.3] C:\Users\lenovo\.gradle\caches\transforms-1\files-1.1\android-loadingdialog-1.0.3.aar\af24d6d30cfc66c5c07ffd7958a61ed5\AndroidManifest.xml:7:5-9:41
MERGED from [com.github.jrvansuita:CheckNewAppVersionAvailable:v1.0.0] C:\Users\lenovo\.gradle\caches\transforms-1\files-1.1\CheckNewAppVersionAvailable-v1.0.0.aar\186af6d8c88ab6e9ec3f650e92475b49\AndroidManifest.xml:7:5-9:41
MERGED from [com.github.jrvansuita:CheckNewAppVersionAvailable:v1.0.0] C:\Users\lenovo\.gradle\caches\transforms-1\files-1.1\CheckNewAppVersionAvailable-v1.0.0.aar\186af6d8c88ab6e9ec3f650e92475b49\AndroidManifest.xml:7:5-9:41
MERGED from [com.android.support:appcompat-v7:27.1.1] C:\Users\lenovo\.gradle\caches\transforms-1\files-1.1\appcompat-v7-27.1.1.aar\c9ac771cf91b679f5069541754325718\AndroidManifest.xml:20:5-44
MERGED from [com.android.support:appcompat-v7:27.1.1] C:\Users\lenovo\.gradle\caches\transforms-1\files-1.1\appcompat-v7-27.1.1.aar\c9ac771cf91b679f5069541754325718\AndroidManifest.xml:20:5-44
MERGED from [com.android.support.constraint:constraint-layout:1.1.3] C:\Users\lenovo\.gradle\caches\transforms-1\files-1.1\constraint-layout-1.1.3.aar\af5fa875f7e535bfad087d7ec5552969\AndroidManifest.xml:5:5-7:41
MERGED from [com.android.support.constraint:constraint-layout:1.1.3] C:\Users\lenovo\.gradle\caches\transforms-1\files-1.1\constraint-layout-1.1.3.aar\af5fa875f7e535bfad087d7ec5552969\AndroidManifest.xml:5:5-7:41
MERGED from [com.github.jaydeep17:datetimepicker:0.0.4] C:\Users\lenovo\.gradle\caches\transforms-1\files-1.1\datetimepicker-0.0.4.aar\85af73fa443f58343fe901475d32ee9c\AndroidManifest.xml:7:5-9:41
MERGED from [com.github.jaydeep17:datetimepicker:0.0.4] C:\Users\lenovo\.gradle\caches\transforms-1\files-1.1\datetimepicker-0.0.4.aar\85af73fa443f58343fe901475d32ee9c\AndroidManifest.xml:7:5-9:41
MERGED from [com.borax12.materialdaterangepicker:library:1.9] C:\Users\lenovo\.gradle\caches\transforms-1\files-1.1\library-1.9.aar\3ba3d5be713be5e06858046be6377593\AndroidManifest.xml:22:5-24:41
MERGED from [com.borax12.materialdaterangepicker:library:1.9] C:\Users\lenovo\.gradle\caches\transforms-1\files-1.1\library-1.9.aar\3ba3d5be713be5e06858046be6377593\AndroidManifest.xml:22:5-24:41
MERGED from [com.google.firebase:firebase-firestore:16.0.0] C:\Users\lenovo\.gradle\caches\transforms-1\files-1.1\firebase-firestore-16.0.0.aar\f381f5dfe9bde1d1e1898429f03afd2d\AndroidManifest.xml:6:5-8:41
MERGED from [com.google.firebase:firebase-firestore:16.0.0] C:\Users\lenovo\.gradle\caches\transforms-1\files-1.1\firebase-firestore-16.0.0.aar\f381f5dfe9bde1d1e1898429f03afd2d\AndroidManifest.xml:6:5-8:41
MERGED from [com.google.firebase:firebase-auth:16.0.3] C:\Users\lenovo\.gradle\caches\transforms-1\files-1.1\firebase-auth-16.0.3.aar\3ce27c1094f4f1eeb7b6dd82acaba9d5\AndroidManifest.xml:20:5-44
MERGED from [com.google.firebase:firebase-auth:16.0.3] C:\Users\lenovo\.gradle\caches\transforms-1\files-1.1\firebase-auth-16.0.3.aar\3ce27c1094f4f1eeb7b6dd82acaba9d5\AndroidManifest.xml:20:5-44
MERGED from [com.google.firebase:firebase-database:16.0.1] C:\Users\lenovo\.gradle\caches\transforms-1\files-1.1\firebase-database-16.0.1.aar\8e268d333681f08f0d6e5d9e58a2f65a\AndroidManifest.xml:6:5-44
MERGED from [com.google.firebase:firebase-database:16.0.1] C:\Users\lenovo\.gradle\caches\transforms-1\files-1.1\firebase-database-16.0.1.aar\8e268d333681f08f0d6e5d9e58a2f65a\AndroidManifest.xml:6:5-44
MERGED from [com.google.android.gms:play-services-location:15.0.1] C:\Users\lenovo\.gradle\caches\transforms-1\files-1.1\play-services-location-15.0.1.aar\417d2332272e3b146013a32cb04515de\AndroidManifest.xml:5:5-44
MERGED from [com.google.android.gms:play-services-location:15.0.1] C:\Users\lenovo\.gradle\caches\transforms-1\files-1.1\play-services-location-15.0.1.aar\417d2332272e3b146013a32cb04515de\AndroidManifest.xml:5:5-44
MERGED from [com.google.firebase:firebase-core:16.0.0] C:\Users\lenovo\.gradle\caches\transforms-1\files-1.1\firebase-core-16.0.0.aar\300152548f95c28152320e81605f687b\AndroidManifest.xml:5:5-44
MERGED from [com.google.firebase:firebase-core:16.0.0] C:\Users\lenovo\.gradle\caches\transforms-1\files-1.1\firebase-core-16.0.0.aar\300152548f95c28152320e81605f687b\AndroidManifest.xml:5:5-44
MERGED from [com.google.firebase:firebase-measurement-connector-impl:16.0.0] C:\Users\lenovo\.gradle\caches\transforms-1\files-1.1\firebase-measurement-connector-impl-16.0.0.aar\82efb2fd65da44e887fab3d03879337d\AndroidManifest.xml:20:5-44
MERGED from [com.google.firebase:firebase-measurement-connector-impl:16.0.0] C:\Users\lenovo\.gradle\caches\transforms-1\files-1.1\firebase-measurement-connector-impl-16.0.0.aar\82efb2fd65da44e887fab3d03879337d\AndroidManifest.xml:20:5-44
MERGED from [com.google.firebase:firebase-analytics:16.0.0] C:\Users\lenovo\.gradle\caches\transforms-1\files-1.1\firebase-analytics-16.0.0.aar\411f5b483684ccbd6775d372d9077eaf\AndroidManifest.xml:20:5-44
MERGED from [com.google.firebase:firebase-analytics:16.0.0] C:\Users\lenovo\.gradle\caches\transforms-1\files-1.1\firebase-analytics-16.0.0.aar\411f5b483684ccbd6775d372d9077eaf\AndroidManifest.xml:20:5-44
MERGED from [com.google.firebase:firebase-auth-interop:16.0.0] C:\Users\lenovo\.gradle\caches\transforms-1\files-1.1\firebase-auth-interop-16.0.0.aar\e1446faa06dd217265adc9133f3d3d2c\AndroidManifest.xml:5:5-44
MERGED from [com.google.firebase:firebase-auth-interop:16.0.0] C:\Users\lenovo\.gradle\caches\transforms-1\files-1.1\firebase-auth-interop-16.0.0.aar\e1446faa06dd217265adc9133f3d3d2c\AndroidManifest.xml:5:5-44
MERGED from [com.google.firebase:firebase-database-connection:16.0.1] C:\Users\lenovo\.gradle\caches\transforms-1\files-1.1\firebase-database-connection-16.0.1.aar\fef64fb479c04c1f6d36434d012f7879\AndroidManifest.xml:6:5-44
MERGED from [com.google.firebase:firebase-database-connection:16.0.1] C:\Users\lenovo\.gradle\caches\transforms-1\files-1.1\firebase-database-connection-16.0.1.aar\fef64fb479c04c1f6d36434d012f7879\AndroidManifest.xml:6:5-44
MERGED from [com.google.firebase:firebase-analytics-impl:16.0.0] C:\Users\lenovo\.gradle\caches\transforms-1\files-1.1\firebase-analytics-impl-16.0.0.aar\d47e60e485f4f8d1435768475cc43c02\AndroidManifest.xml:20:5-44
MERGED from [com.google.firebase:firebase-analytics-impl:16.0.0] C:\Users\lenovo\.gradle\caches\transforms-1\files-1.1\firebase-analytics-impl-16.0.0.aar\d47e60e485f4f8d1435768475cc43c02\AndroidManifest.xml:20:5-44
MERGED from [com.google.firebase:firebase-iid:16.0.0] C:\Users\lenovo\.gradle\caches\transforms-1\files-1.1\firebase-iid-16.0.0.aar\0037ee74b5b7d2dad6ae8d034afcb809\AndroidManifest.xml:20:5-44
MERGED from [com.google.firebase:firebase-iid:16.0.0] C:\Users\lenovo\.gradle\caches\transforms-1\files-1.1\firebase-iid-16.0.0.aar\0037ee74b5b7d2dad6ae8d034afcb809\AndroidManifest.xml:20:5-44
MERGED from [com.google.firebase:firebase-common:16.0.0] C:\Users\lenovo\.gradle\caches\transforms-1\files-1.1\firebase-common-16.0.0.aar\546c18ccd1a43491143a89d7a53449b7\AndroidManifest.xml:5:5-6:37
MERGED from [com.google.firebase:firebase-common:16.0.0] C:\Users\lenovo\.gradle\caches\transforms-1\files-1.1\firebase-common-16.0.0.aar\546c18ccd1a43491143a89d7a53449b7\AndroidManifest.xml:5:5-6:37
MERGED from [com.google.android.gms:play-services-flags:15.0.1] C:\Users\lenovo\.gradle\caches\transforms-1\files-1.1\play-services-flags-15.0.1.aar\46121e737358513562d0071777fd6c6e\AndroidManifest.xml:20:5-44
MERGED from [com.google.android.gms:play-services-flags:15.0.1] C:\Users\lenovo\.gradle\caches\transforms-1\files-1.1\play-services-flags-15.0.1.aar\46121e737358513562d0071777fd6c6e\AndroidManifest.xml:20:5-44
MERGED from [com.google.firebase:firebase-iid-interop:16.0.0] C:\Users\lenovo\.gradle\caches\transforms-1\files-1.1\firebase-iid-interop-16.0.0.aar\cc88f9488b38a6908bdb6b60387abb90\AndroidManifest.xml:5:5-44
MERGED from [com.google.firebase:firebase-iid-interop:16.0.0] C:\Users\lenovo\.gradle\caches\transforms-1\files-1.1\firebase-iid-interop-16.0.0.aar\cc88f9488b38a6908bdb6b60387abb90\AndroidManifest.xml:5:5-44
MERGED from [com.google.android.gms:play-services-base:15.0.1] C:\Users\lenovo\.gradle\caches\transforms-1\files-1.1\play-services-base-15.0.1.aar\185f9ee284c1e9e4d3e108484243e3e2\AndroidManifest.xml:20:5-44
MERGED from [com.google.android.gms:play-services-base:15.0.1] C:\Users\lenovo\.gradle\caches\transforms-1\files-1.1\play-services-base-15.0.1.aar\185f9ee284c1e9e4d3e108484243e3e2\AndroidManifest.xml:20:5-44
MERGED from [com.google.android.gms:play-services-tasks:15.0.1] C:\Users\lenovo\.gradle\caches\transforms-1\files-1.1\play-services-tasks-15.0.1.aar\e5d698ac6100ba9c3355a5fffae11f6a\AndroidManifest.xml:5:5-44
MERGED from [com.google.android.gms:play-services-tasks:15.0.1] C:\Users\lenovo\.gradle\caches\transforms-1\files-1.1\play-services-tasks-15.0.1.aar\e5d698ac6100ba9c3355a5fffae11f6a\AndroidManifest.xml:5:5-44
MERGED from [com.google.firebase:firebase-database-collection:15.0.1] C:\Users\lenovo\.gradle\caches\transforms-1\files-1.1\firebase-database-collection-15.0.1.aar\bb46ac8371409a8283b276947d8d67e0\AndroidManifest.xml:6:5-44
MERGED from [com.google.firebase:firebase-database-collection:15.0.1] C:\Users\lenovo\.gradle\caches\transforms-1\files-1.1\firebase-database-collection-15.0.1.aar\bb46ac8371409a8283b276947d8d67e0\AndroidManifest.xml:6:5-44
MERGED from [com.google.android.gms:play-services-places-placereport:15.0.1] C:\Users\lenovo\.gradle\caches\transforms-1\files-1.1\play-services-places-placereport-15.0.1.aar\7289bbc51e8a6b64b0e0b998fecc6504\AndroidManifest.xml:20:5-44
MERGED from [com.google.android.gms:play-services-places-placereport:15.0.1] C:\Users\lenovo\.gradle\caches\transforms-1\files-1.1\play-services-places-placereport-15.0.1.aar\7289bbc51e8a6b64b0e0b998fecc6504\AndroidManifest.xml:20:5-44
MERGED from [com.google.android.gms:play-services-stats:15.0.1] C:\Users\lenovo\.gradle\caches\transforms-1\files-1.1\play-services-stats-15.0.1.aar\ea3ccd465df538f171b625b9ee5809d0\AndroidManifest.xml:5:5-44
MERGED from [com.google.android.gms:play-services-stats:15.0.1] C:\Users\lenovo\.gradle\caches\transforms-1\files-1.1\play-services-stats-15.0.1.aar\ea3ccd465df538f171b625b9ee5809d0\AndroidManifest.xml:5:5-44
MERGED from [com.google.firebase:firebase-measurement-connector:16.0.0] C:\Users\lenovo\.gradle\caches\transforms-1\files-1.1\firebase-measurement-connector-16.0.0.aar\6519ecc301c580c2921e3f939576ac6a\AndroidManifest.xml:20:5-44
MERGED from [com.google.firebase:firebase-measurement-connector:16.0.0] C:\Users\lenovo\.gradle\caches\transforms-1\files-1.1\firebase-measurement-connector-16.0.0.aar\6519ecc301c580c2921e3f939576ac6a\AndroidManifest.xml:20:5-44
MERGED from [com.google.android.gms:play-services-ads-identifier:15.0.1] C:\Users\lenovo\.gradle\caches\transforms-1\files-1.1\play-services-ads-identifier-15.0.1.aar\70133f3607e568e7047fce5d72e0275d\AndroidManifest.xml:20:5-44
MERGED from [com.google.android.gms:play-services-ads-identifier:15.0.1] C:\Users\lenovo\.gradle\caches\transforms-1\files-1.1\play-services-ads-identifier-15.0.1.aar\70133f3607e568e7047fce5d72e0275d\AndroidManifest.xml:20:5-44
MERGED from [com.google.android.gms:play-services-basement:15.0.1] C:\Users\lenovo\.gradle\caches\transforms-1\files-1.1\play-services-basement-15.0.1.aar\67580bd6ba151d000121dfe86953b710\AndroidManifest.xml:20:5-44
MERGED from [com.google.android.gms:play-services-basement:15.0.1] C:\Users\lenovo\.gradle\caches\transforms-1\files-1.1\play-services-basement-15.0.1.aar\67580bd6ba151d000121dfe86953b710\AndroidManifest.xml:20:5-44
MERGED from [com.android.support:support-v4:27.1.1] C:\Users\lenovo\.gradle\caches\transforms-1\files-1.1\support-v4-27.1.1.aar\013726ee33239270d569f9d97b571f73\AndroidManifest.xml:20:5-44
MERGED from [com.android.support:support-v4:27.1.1] C:\Users\lenovo\.gradle\caches\transforms-1\files-1.1\support-v4-27.1.1.aar\013726ee33239270d569f9d97b571f73\AndroidManifest.xml:20:5-44
MERGED from [com.android.support:support-fragment:27.1.1] C:\Users\lenovo\.gradle\caches\transforms-1\files-1.1\support-fragment-27.1.1.aar\ac1520fadc620eb0d172ad6de972a326\AndroidManifest.xml:20:5-44
MERGED from [com.android.support:support-fragment:27.1.1] C:\Users\lenovo\.gradle\caches\transforms-1\files-1.1\support-fragment-27.1.1.aar\ac1520fadc620eb0d172ad6de972a326\AndroidManifest.xml:20:5-44
MERGED from [com.android.support:recyclerview-v7:27.1.1] C:\Users\lenovo\.gradle\caches\transforms-1\files-1.1\recyclerview-v7-27.1.1.aar\7be4fec4600ceae1dbf5cc39ed650307\AndroidManifest.xml:20:5-44
MERGED from [com.android.support:recyclerview-v7:27.1.1] C:\Users\lenovo\.gradle\caches\transforms-1\files-1.1\recyclerview-v7-27.1.1.aar\7be4fec4600ceae1dbf5cc39ed650307\AndroidManifest.xml:20:5-44
MERGED from [com.android.support:animated-vector-drawable:27.1.1] C:\Users\lenovo\.gradle\caches\transforms-1\files-1.1\animated-vector-drawable-27.1.1.aar\359543cb015c666578df5b7896560c6b\AndroidManifest.xml:20:5-44
MERGED from [com.android.support:animated-vector-drawable:27.1.1] C:\Users\lenovo\.gradle\caches\transforms-1\files-1.1\animated-vector-drawable-27.1.1.aar\359543cb015c666578df5b7896560c6b\AndroidManifest.xml:20:5-44
MERGED from [com.android.support:support-core-ui:27.1.1] C:\Users\lenovo\.gradle\caches\transforms-1\files-1.1\support-core-ui-27.1.1.aar\bc6c76ab4fa469ed3eff21266ea0b533\AndroidManifest.xml:20:5-44
MERGED from [com.android.support:support-core-ui:27.1.1] C:\Users\lenovo\.gradle\caches\transforms-1\files-1.1\support-core-ui-27.1.1.aar\bc6c76ab4fa469ed3eff21266ea0b533\AndroidManifest.xml:20:5-44
MERGED from [com.android.support:support-core-utils:27.1.1] C:\Users\lenovo\.gradle\caches\transforms-1\files-1.1\support-core-utils-27.1.1.aar\d4a0c5f66900296c8729f01ec11fcbea\AndroidManifest.xml:20:5-44
MERGED from [com.android.support:support-core-utils:27.1.1] C:\Users\lenovo\.gradle\caches\transforms-1\files-1.1\support-core-utils-27.1.1.aar\d4a0c5f66900296c8729f01ec11fcbea\AndroidManifest.xml:20:5-44
MERGED from [com.android.support:cardview-v7:27.1.1] C:\Users\lenovo\.gradle\caches\transforms-1\files-1.1\cardview-v7-27.1.1.aar\8cc7703ac96e15c9dd9541e291ed5cdf\AndroidManifest.xml:20:5-44
MERGED from [com.android.support:cardview-v7:27.1.1] C:\Users\lenovo\.gradle\caches\transforms-1\files-1.1\cardview-v7-27.1.1.aar\8cc7703ac96e15c9dd9541e291ed5cdf\AndroidManifest.xml:20:5-44
MERGED from [com.intuit.sdp:sdp-android:1.0.3] C:\Users\lenovo\.gradle\caches\transforms-1\files-1.1\sdp-android-1.0.3.aar\0718eb0b87e6ef83b9eb261aff0bd3be\AndroidManifest.xml:7:5-9:41
MERGED from [com.intuit.sdp:sdp-android:1.0.3] C:\Users\lenovo\.gradle\caches\transforms-1\files-1.1\sdp-android-1.0.3.aar\0718eb0b87e6ef83b9eb261aff0bd3be\AndroidManifest.xml:7:5-9:41
MERGED from [com.jakewharton:butterknife:8.5.1] C:\Users\lenovo\.gradle\caches\transforms-1\files-1.1\butterknife-8.5.1.aar\d8d4cd34d85575655f74cb121bc10488\AndroidManifest.xml:5:5-43
MERGED from [com.jakewharton:butterknife:8.5.1] C:\Users\lenovo\.gradle\caches\transforms-1\files-1.1\butterknife-8.5.1.aar\d8d4cd34d85575655f74cb121bc10488\AndroidManifest.xml:5:5-43
MERGED from [net.cachapa.expandablelayout:expandablelayout:2.9.2] C:\Users\lenovo\.gradle\caches\transforms-1\files-1.1\expandablelayout-2.9.2.aar\c3d107950b56c67ebff36a0d16fc51cf\AndroidManifest.xml:8:5-10:41
MERGED from [net.cachapa.expandablelayout:expandablelayout:2.9.2] C:\Users\lenovo\.gradle\caches\transforms-1\files-1.1\expandablelayout-2.9.2.aar\c3d107950b56c67ebff36a0d16fc51cf\AndroidManifest.xml:8:5-10:41
MERGED from [com.crashlytics.sdk.android:crashlytics:2.9.3] C:\Users\lenovo\.gradle\caches\transforms-1\files-1.1\crashlytics-2.9.3.aar\b76bcd8a85404b2cb6d534558a368022\AndroidManifest.xml:7:5-43
MERGED from [com.crashlytics.sdk.android:crashlytics:2.9.3] C:\Users\lenovo\.gradle\caches\transforms-1\files-1.1\crashlytics-2.9.3.aar\b76bcd8a85404b2cb6d534558a368022\AndroidManifest.xml:7:5-43
MERGED from [com.moos:Material-ProgressView:1.0.6] C:\Users\lenovo\.gradle\caches\transforms-1\files-1.1\Material-ProgressView-1.0.6.aar\0a136cc85bc5e6f812cfbd3b78da53be\AndroidManifest.xml:7:5-9:41
MERGED from [com.moos:Material-ProgressView:1.0.6] C:\Users\lenovo\.gradle\caches\transforms-1\files-1.1\Material-ProgressView-1.0.6.aar\0a136cc85bc5e6f812cfbd3b78da53be\AndroidManifest.xml:7:5-9:41
MERGED from [de.hdodenhof:circleimageview:2.1.0] C:\Users\lenovo\.gradle\caches\transforms-1\files-1.1\circleimageview-2.1.0.aar\8264b1830057ab5fff2442e42c9d7c72\AndroidManifest.xml:5:5-7:41
MERGED from [de.hdodenhof:circleimageview:2.1.0] C:\Users\lenovo\.gradle\caches\transforms-1\files-1.1\circleimageview-2.1.0.aar\8264b1830057ab5fff2442e42c9d7c72\AndroidManifest.xml:5:5-7:41
MERGED from [com.android.support:support-vector-drawable:27.1.1] C:\Users\lenovo\.gradle\caches\transforms-1\files-1.1\support-vector-drawable-27.1.1.aar\9fdccfe2988c9f1a2537452d895ccf6c\AndroidManifest.xml:20:5-44
MERGED from [com.android.support:support-vector-drawable:27.1.1] C:\Users\lenovo\.gradle\caches\transforms-1\files-1.1\support-vector-drawable-27.1.1.aar\9fdccfe2988c9f1a2537452d895ccf6c\AndroidManifest.xml:20:5-44
MERGED from [com.android.support:transition:27.1.1] C:\Users\lenovo\.gradle\caches\transforms-1\files-1.1\transition-27.1.1.aar\10334a6c3269aaf0d014a4ae60c25203\AndroidManifest.xml:20:5-44
MERGED from [com.android.support:transition:27.1.1] C:\Users\lenovo\.gradle\caches\transforms-1\files-1.1\transition-27.1.1.aar\10334a6c3269aaf0d014a4ae60c25203\AndroidManifest.xml:20:5-44
MERGED from [com.android.support:support-media-compat:27.1.1] C:\Users\lenovo\.gradle\caches\transforms-1\files-1.1\support-media-compat-27.1.1.aar\3a1ffff95eddf2a63f4657316db3889c\AndroidManifest.xml:20:5-44
MERGED from [com.android.support:support-media-compat:27.1.1] C:\Users\lenovo\.gradle\caches\transforms-1\files-1.1\support-media-compat-27.1.1.aar\3a1ffff95eddf2a63f4657316db3889c\AndroidManifest.xml:20:5-44
MERGED from [com.android.support:support-compat:27.1.1] C:\Users\lenovo\.gradle\caches\transforms-1\files-1.1\support-compat-27.1.1.aar\79672be4cd50a9cd60a2ca02a6b5c46f\AndroidManifest.xml:20:5-44
MERGED from [com.android.support:support-compat:27.1.1] C:\Users\lenovo\.gradle\caches\transforms-1\files-1.1\support-compat-27.1.1.aar\79672be4cd50a9cd60a2ca02a6b5c46f\AndroidManifest.xml:20:5-44
MERGED from [android.arch.lifecycle:runtime:1.1.0] C:\Users\lenovo\.gradle\caches\transforms-1\files-1.1\runtime-1.1.0.aar\85298f782846d6da922355280d9cc1ae\AndroidManifest.xml:20:5-44
MERGED from [android.arch.lifecycle:runtime:1.1.0] C:\Users\lenovo\.gradle\caches\transforms-1\files-1.1\runtime-1.1.0.aar\85298f782846d6da922355280d9cc1ae\AndroidManifest.xml:20:5-44
MERGED from [android.arch.lifecycle:livedata-core:1.1.0] C:\Users\lenovo\.gradle\caches\transforms-1\files-1.1\livedata-core-1.1.0.aar\3d00950aaa7253e8a5c7b64da112449b\AndroidManifest.xml:20:5-44
MERGED from [android.arch.lifecycle:livedata-core:1.1.0] C:\Users\lenovo\.gradle\caches\transforms-1\files-1.1\livedata-core-1.1.0.aar\3d00950aaa7253e8a5c7b64da112449b\AndroidManifest.xml:20:5-44
MERGED from [android.arch.core:runtime:1.1.0] C:\Users\lenovo\.gradle\caches\transforms-1\files-1.1\runtime-1.1.0.aar\cfda9d00b348225b7b2434ba2f466c28\AndroidManifest.xml:20:5-44
MERGED from [android.arch.core:runtime:1.1.0] C:\Users\lenovo\.gradle\caches\transforms-1\files-1.1\runtime-1.1.0.aar\cfda9d00b348225b7b2434ba2f466c28\AndroidManifest.xml:20:5-44
MERGED from [com.crashlytics.sdk.android:crashlytics-core:2.6.3] C:\Users\lenovo\.gradle\caches\transforms-1\files-1.1\crashlytics-core-2.6.3.aar\c8315a1d6691a8ce1a0aade8b6f999d7\AndroidManifest.xml:50:5-43
MERGED from [com.crashlytics.sdk.android:crashlytics-core:2.6.3] C:\Users\lenovo\.gradle\caches\transforms-1\files-1.1\crashlytics-core-2.6.3.aar\c8315a1d6691a8ce1a0aade8b6f999d7\AndroidManifest.xml:50:5-43
MERGED from [com.crashlytics.sdk.android:answers:1.4.2] C:\Users\lenovo\.gradle\caches\transforms-1\files-1.1\answers-1.4.2.aar\f3caeccb3ea249f73c07cf2102db0042\AndroidManifest.xml:7:5-43
MERGED from [com.crashlytics.sdk.android:answers:1.4.2] C:\Users\lenovo\.gradle\caches\transforms-1\files-1.1\answers-1.4.2.aar\f3caeccb3ea249f73c07cf2102db0042\AndroidManifest.xml:7:5-43
MERGED from [com.crashlytics.sdk.android:beta:1.2.8] C:\Users\lenovo\.gradle\caches\transforms-1\files-1.1\beta-1.2.8.aar\431404b61c8e6b120f3030cb5ccea1b7\AndroidManifest.xml:7:5-43
MERGED from [com.crashlytics.sdk.android:beta:1.2.8] C:\Users\lenovo\.gradle\caches\transforms-1\files-1.1\beta-1.2.8.aar\431404b61c8e6b120f3030cb5ccea1b7\AndroidManifest.xml:7:5-43
MERGED from [io.fabric.sdk.android:fabric:1.4.3] C:\Users\lenovo\.gradle\caches\transforms-1\files-1.1\fabric-1.4.3.aar\a8a1e62e8a66d2f7e1ac39d9606bdfa0\AndroidManifest.xml:27:5-43
MERGED from [io.fabric.sdk.android:fabric:1.4.3] C:\Users\lenovo\.gradle\caches\transforms-1\files-1.1\fabric-1.4.3.aar\a8a1e62e8a66d2f7e1ac39d9606bdfa0\AndroidManifest.xml:27:5-43
MERGED from [com.google.firebase:protolite-well-known-types:15.0.0] C:\Users\lenovo\.gradle\caches\transforms-1\files-1.1\protolite-well-known-types-15.0.0.aar\3f49fbddbfa24f4559436e48fa87753b\AndroidManifest.xml:7:5-9:41
MERGED from [com.google.firebase:protolite-well-known-types:15.0.0] C:\Users\lenovo\.gradle\caches\transforms-1\files-1.1\protolite-well-known-types-15.0.0.aar\3f49fbddbfa24f4559436e48fa87753b\AndroidManifest.xml:7:5-9:41
MERGED from [android.arch.lifecycle:viewmodel:1.1.0] C:\Users\lenovo\.gradle\caches\transforms-1\files-1.1\viewmodel-1.1.0.aar\7378e15627542136b5d2bd1bed9bb92f\AndroidManifest.xml:20:5-44
MERGED from [android.arch.lifecycle:viewmodel:1.1.0] C:\Users\lenovo\.gradle\caches\transforms-1\files-1.1\viewmodel-1.1.0.aar\7378e15627542136b5d2bd1bed9bb92f\AndroidManifest.xml:20:5-44
MERGED from [com.google.android.gms:play-services-measurement-base:15.0.4] C:\Users\lenovo\.gradle\caches\transforms-1\files-1.1\play-services-measurement-base-15.0.4.aar\2d1135de5ee252f47c571597a6ce63f6\AndroidManifest.xml:20:5-44
MERGED from [com.google.android.gms:play-services-measurement-base:15.0.4] C:\Users\lenovo\.gradle\caches\transforms-1\files-1.1\play-services-measurement-base-15.0.4.aar\2d1135de5ee252f47c571597a6ce63f6\AndroidManifest.xml:20:5-44
INJECTED from E:\UTTAM_WORKSPACE\new aepsmatm advanced\EasyAEPSAndroidApp\app\src\main\AndroidManifest.xml
INJECTED from E:\UTTAM_WORKSPACE\new aepsmatm advanced\EasyAEPSAndroidApp\app\src\main\AndroidManifest.xml
	android:targetSdkVersion
		INJECTED from E:\UTTAM_WORKSPACE\new aepsmatm advanced\EasyAEPSAndroidApp\app\src\main\AndroidManifest.xml
		ADDED from E:\UTTAM_WORKSPACE\new aepsmatm advanced\EasyAEPSAndroidApp\app\src\main\AndroidManifest.xml
		INJECTED from E:\UTTAM_WORKSPACE\new aepsmatm advanced\EasyAEPSAndroidApp\app\src\main\AndroidManifest.xml
	android:minSdkVersion
		INJECTED from E:\UTTAM_WORKSPACE\new aepsmatm advanced\EasyAEPSAndroidApp\app\src\main\AndroidManifest.xml
		ADDED from E:\UTTAM_WORKSPACE\new aepsmatm advanced\EasyAEPSAndroidApp\app\src\main\AndroidManifest.xml
		INJECTED from E:\UTTAM_WORKSPACE\new aepsmatm advanced\EasyAEPSAndroidApp\app\src\main\AndroidManifest.xml
activity#com.iserveu.aeps.introscreens.WelcomeActivity
ADDED from E:\UTTAM_WORKSPACE\new aepsmatm advanced\EasyAEPSAndroidApp\app\src\main\AndroidManifest.xml:43:12-53:20
	android:screenOrientation
		ADDED from E:\UTTAM_WORKSPACE\new aepsmatm advanced\EasyAEPSAndroidApp\app\src\main\AndroidManifest.xml:45:13-49
	android:name
		ADDED from E:\UTTAM_WORKSPACE\new aepsmatm advanced\EasyAEPSAndroidApp\app\src\main\AndroidManifest.xml:44:13-57
intent-filter#action:name:android.hardware.usb.action.USB_DEVICE_ATTACHED+action:name:android.hardware.usb.action.USB_DEVICE_DETACHED+action:name:android.intent.action.MAIN+category:name:android.intent.category.LAUNCHER
ADDED from E:\UTTAM_WORKSPACE\new aepsmatm advanced\EasyAEPSAndroidApp\app\src\main\AndroidManifest.xml:46:13-52:29
action#android.intent.action.MAIN
ADDED from E:\UTTAM_WORKSPACE\new aepsmatm advanced\EasyAEPSAndroidApp\app\src\main\AndroidManifest.xml:47:17-69
	android:name
		ADDED from E:\UTTAM_WORKSPACE\new aepsmatm advanced\EasyAEPSAndroidApp\app\src\main\AndroidManifest.xml:47:25-66
action#android.hardware.usb.action.USB_DEVICE_DETACHED
ADDED from E:\UTTAM_WORKSPACE\new aepsmatm advanced\EasyAEPSAndroidApp\app\src\main\AndroidManifest.xml:48:17-90
	android:name
		ADDED from E:\UTTAM_WORKSPACE\new aepsmatm advanced\EasyAEPSAndroidApp\app\src\main\AndroidManifest.xml:48:25-87
action#android.hardware.usb.action.USB_DEVICE_ATTACHED
ADDED from E:\UTTAM_WORKSPACE\new aepsmatm advanced\EasyAEPSAndroidApp\app\src\main\AndroidManifest.xml:49:17-90
	android:name
		ADDED from E:\UTTAM_WORKSPACE\new aepsmatm advanced\EasyAEPSAndroidApp\app\src\main\AndroidManifest.xml:49:25-87
category#android.intent.category.LAUNCHER
ADDED from E:\UTTAM_WORKSPACE\new aepsmatm advanced\EasyAEPSAndroidApp\app\src\main\AndroidManifest.xml:51:17-77
	android:name
		ADDED from E:\UTTAM_WORKSPACE\new aepsmatm advanced\EasyAEPSAndroidApp\app\src\main\AndroidManifest.xml:51:27-74
activity#com.iserveu.aeps.SplashActivity
ADDED from E:\UTTAM_WORKSPACE\new aepsmatm advanced\EasyAEPSAndroidApp\app\src\main\AndroidManifest.xml:54:9-56:52
	android:screenOrientation
		ADDED from E:\UTTAM_WORKSPACE\new aepsmatm advanced\EasyAEPSAndroidApp\app\src\main\AndroidManifest.xml:56:13-49
	android:name
		ADDED from E:\UTTAM_WORKSPACE\new aepsmatm advanced\EasyAEPSAndroidApp\app\src\main\AndroidManifest.xml:55:13-43
activity#com.iserveu.aeps.main2activity.Main2Activity
ADDED from E:\UTTAM_WORKSPACE\new aepsmatm advanced\EasyAEPSAndroidApp\app\src\main\AndroidManifest.xml:57:9-58:51
	android:screenOrientation
		ADDED from E:\UTTAM_WORKSPACE\new aepsmatm advanced\EasyAEPSAndroidApp\app\src\main\AndroidManifest.xml:58:13-49
	android:name
		ADDED from E:\UTTAM_WORKSPACE\new aepsmatm advanced\EasyAEPSAndroidApp\app\src\main\AndroidManifest.xml:57:19-62
activity#com.iserveu.aeps.fundtransfer.FundTransfer
ADDED from E:\UTTAM_WORKSPACE\new aepsmatm advanced\EasyAEPSAndroidApp\app\src\main\AndroidManifest.xml:59:9-60:51
	android:screenOrientation
		ADDED from E:\UTTAM_WORKSPACE\new aepsmatm advanced\EasyAEPSAndroidApp\app\src\main\AndroidManifest.xml:60:13-49
	android:name
		ADDED from E:\UTTAM_WORKSPACE\new aepsmatm advanced\EasyAEPSAndroidApp\app\src\main\AndroidManifest.xml:59:19-60
activity#com.iserveu.aeps.fundtransferreport.FundTransferReport
ADDED from E:\UTTAM_WORKSPACE\new aepsmatm advanced\EasyAEPSAndroidApp\app\src\main\AndroidManifest.xml:61:9-62:51
	android:screenOrientation
		ADDED from E:\UTTAM_WORKSPACE\new aepsmatm advanced\EasyAEPSAndroidApp\app\src\main\AndroidManifest.xml:62:13-49
	android:name
		ADDED from E:\UTTAM_WORKSPACE\new aepsmatm advanced\EasyAEPSAndroidApp\app\src\main\AndroidManifest.xml:61:19-72
activity#com.iserveu.aeps.login.LoginActivity
ADDED from E:\UTTAM_WORKSPACE\new aepsmatm advanced\EasyAEPSAndroidApp\app\src\main\AndroidManifest.xml:64:9-66:52
	android:screenOrientation
		ADDED from E:\UTTAM_WORKSPACE\new aepsmatm advanced\EasyAEPSAndroidApp\app\src\main\AndroidManifest.xml:66:13-49
	android:name
		ADDED from E:\UTTAM_WORKSPACE\new aepsmatm advanced\EasyAEPSAndroidApp\app\src\main\AndroidManifest.xml:65:13-48
activity#com.iserveu.aeps.transaction.BalanceActivity
ADDED from E:\UTTAM_WORKSPACE\new aepsmatm advanced\EasyAEPSAndroidApp\app\src\main\AndroidManifest.xml:67:9-69:52
	android:screenOrientation
		ADDED from E:\UTTAM_WORKSPACE\new aepsmatm advanced\EasyAEPSAndroidApp\app\src\main\AndroidManifest.xml:69:13-49
	android:name
		ADDED from E:\UTTAM_WORKSPACE\new aepsmatm advanced\EasyAEPSAndroidApp\app\src\main\AndroidManifest.xml:68:13-56
activity#com.iserveu.aeps.transaction.ReportActivity
ADDED from E:\UTTAM_WORKSPACE\new aepsmatm advanced\EasyAEPSAndroidApp\app\src\main\AndroidManifest.xml:70:9-72:52
	android:screenOrientation
		ADDED from E:\UTTAM_WORKSPACE\new aepsmatm advanced\EasyAEPSAndroidApp\app\src\main\AndroidManifest.xml:72:13-49
	android:name
		ADDED from E:\UTTAM_WORKSPACE\new aepsmatm advanced\EasyAEPSAndroidApp\app\src\main\AndroidManifest.xml:71:13-55
activity#com.iserveu.aeps.dashboard.DashboardActivity
ADDED from E:\UTTAM_WORKSPACE\new aepsmatm advanced\EasyAEPSAndroidApp\app\src\main\AndroidManifest.xml:73:9-75:52
	android:screenOrientation
		ADDED from E:\UTTAM_WORKSPACE\new aepsmatm advanced\EasyAEPSAndroidApp\app\src\main\AndroidManifest.xml:75:13-49
	android:name
		ADDED from E:\UTTAM_WORKSPACE\new aepsmatm advanced\EasyAEPSAndroidApp\app\src\main\AndroidManifest.xml:74:13-56
activity#com.iserveu.aeps.bankspinner.BankNameListActivity
ADDED from E:\UTTAM_WORKSPACE\new aepsmatm advanced\EasyAEPSAndroidApp\app\src\main\AndroidManifest.xml:76:9-78:52
	android:screenOrientation
		ADDED from E:\UTTAM_WORKSPACE\new aepsmatm advanced\EasyAEPSAndroidApp\app\src\main\AndroidManifest.xml:78:13-49
	android:name
		ADDED from E:\UTTAM_WORKSPACE\new aepsmatm advanced\EasyAEPSAndroidApp\app\src\main\AndroidManifest.xml:77:13-61
activity#com.iserveu.aeps.transaction.TransactionReceiptActivity
ADDED from E:\UTTAM_WORKSPACE\new aepsmatm advanced\EasyAEPSAndroidApp\app\src\main\AndroidManifest.xml:79:9-81:52
	android:screenOrientation
		ADDED from E:\UTTAM_WORKSPACE\new aepsmatm advanced\EasyAEPSAndroidApp\app\src\main\AndroidManifest.xml:81:13-49
	android:name
		ADDED from E:\UTTAM_WORKSPACE\new aepsmatm advanced\EasyAEPSAndroidApp\app\src\main\AndroidManifest.xml:80:13-67
activity#com.iserveu.aeps.transactionstatus.TransactionStatusActivity
ADDED from E:\UTTAM_WORKSPACE\new aepsmatm advanced\EasyAEPSAndroidApp\app\src\main\AndroidManifest.xml:82:9-84:52
	android:screenOrientation
		ADDED from E:\UTTAM_WORKSPACE\new aepsmatm advanced\EasyAEPSAndroidApp\app\src\main\AndroidManifest.xml:84:13-49
	android:name
		ADDED from E:\UTTAM_WORKSPACE\new aepsmatm advanced\EasyAEPSAndroidApp\app\src\main\AndroidManifest.xml:83:13-72
activity#com.iserveu.aeps.dashboard.MainActivity
ADDED from E:\UTTAM_WORKSPACE\new aepsmatm advanced\EasyAEPSAndroidApp\app\src\main\AndroidManifest.xml:85:9-87:52
	android:screenOrientation
		ADDED from E:\UTTAM_WORKSPACE\new aepsmatm advanced\EasyAEPSAndroidApp\app\src\main\AndroidManifest.xml:87:13-49
	android:name
		ADDED from E:\UTTAM_WORKSPACE\new aepsmatm advanced\EasyAEPSAndroidApp\app\src\main\AndroidManifest.xml:86:13-51
activity#com.iserveu.aeps.microatm.MicroAtmActivity
ADDED from E:\UTTAM_WORKSPACE\new aepsmatm advanced\EasyAEPSAndroidApp\app\src\main\AndroidManifest.xml:88:9-90:51
	android:screenOrientation
		ADDED from E:\UTTAM_WORKSPACE\new aepsmatm advanced\EasyAEPSAndroidApp\app\src\main\AndroidManifest.xml:90:13-49
	android:name
		ADDED from E:\UTTAM_WORKSPACE\new aepsmatm advanced\EasyAEPSAndroidApp\app\src\main\AndroidManifest.xml:89:13-54
activity#com.iserveu.aeps.microatm.MATMTransactionStatusActivity
ADDED from E:\UTTAM_WORKSPACE\new aepsmatm advanced\EasyAEPSAndroidApp\app\src\main\AndroidManifest.xml:91:9-93:51
	android:screenOrientation
		ADDED from E:\UTTAM_WORKSPACE\new aepsmatm advanced\EasyAEPSAndroidApp\app\src\main\AndroidManifest.xml:93:13-49
	android:name
		ADDED from E:\UTTAM_WORKSPACE\new aepsmatm advanced\EasyAEPSAndroidApp\app\src\main\AndroidManifest.xml:92:13-67
activity#com.iserveu.aeps.aeps2.Aeps2Activity
ADDED from E:\UTTAM_WORKSPACE\new aepsmatm advanced\EasyAEPSAndroidApp\app\src\main\AndroidManifest.xml:94:9-96:51
	android:screenOrientation
		ADDED from E:\UTTAM_WORKSPACE\new aepsmatm advanced\EasyAEPSAndroidApp\app\src\main\AndroidManifest.xml:96:13-49
	android:name
		ADDED from E:\UTTAM_WORKSPACE\new aepsmatm advanced\EasyAEPSAndroidApp\app\src\main\AndroidManifest.xml:95:13-48
activity#com.iserveu.aeps.matmtransaction.MicroAtmReportActivity
ADDED from E:\UTTAM_WORKSPACE\new aepsmatm advanced\EasyAEPSAndroidApp\app\src\main\AndroidManifest.xml:97:9-99:52
	android:screenOrientation
		ADDED from E:\UTTAM_WORKSPACE\new aepsmatm advanced\EasyAEPSAndroidApp\app\src\main\AndroidManifest.xml:99:13-49
	android:name
		ADDED from E:\UTTAM_WORKSPACE\new aepsmatm advanced\EasyAEPSAndroidApp\app\src\main\AndroidManifest.xml:98:13-67
activity#com.iserveu.aeps.aeps2report.Aeps2ReportActivity
ADDED from E:\UTTAM_WORKSPACE\new aepsmatm advanced\EasyAEPSAndroidApp\app\src\main\AndroidManifest.xml:100:9-102:52
	android:screenOrientation
		ADDED from E:\UTTAM_WORKSPACE\new aepsmatm advanced\EasyAEPSAndroidApp\app\src\main\AndroidManifest.xml:102:13-49
	android:name
		ADDED from E:\UTTAM_WORKSPACE\new aepsmatm advanced\EasyAEPSAndroidApp\app\src\main\AndroidManifest.xml:101:13-60
activity#com.iserveu.aeps.bluetooth.BluetoothPairActivity
ADDED from E:\UTTAM_WORKSPACE\new aepsmatm advanced\EasyAEPSAndroidApp\app\src\main\AndroidManifest.xml:103:9-106:85
	android:screenOrientation
		ADDED from E:\UTTAM_WORKSPACE\new aepsmatm advanced\EasyAEPSAndroidApp\app\src\main\AndroidManifest.xml:105:13-49
	android:configChanges
		ADDED from E:\UTTAM_WORKSPACE\new aepsmatm advanced\EasyAEPSAndroidApp\app\src\main\AndroidManifest.xml:106:13-83
	android:name
		ADDED from E:\UTTAM_WORKSPACE\new aepsmatm advanced\EasyAEPSAndroidApp\app\src\main\AndroidManifest.xml:104:13-60
activity#com.iserveu.aeps.matmtransaction.TransactionStatusReportActivity
ADDED from E:\UTTAM_WORKSPACE\new aepsmatm advanced\EasyAEPSAndroidApp\app\src\main\AndroidManifest.xml:107:9-109:52
	android:screenOrientation
		ADDED from E:\UTTAM_WORKSPACE\new aepsmatm advanced\EasyAEPSAndroidApp\app\src\main\AndroidManifest.xml:109:13-49
	android:name
		ADDED from E:\UTTAM_WORKSPACE\new aepsmatm advanced\EasyAEPSAndroidApp\app\src\main\AndroidManifest.xml:108:13-76
activity#com.iserveu.aeps.aeps2.Aeps2TransactionStatusActivity
ADDED from E:\UTTAM_WORKSPACE\new aepsmatm advanced\EasyAEPSAndroidApp\app\src\main\AndroidManifest.xml:110:9-112:51
	android:screenOrientation
		ADDED from E:\UTTAM_WORKSPACE\new aepsmatm advanced\EasyAEPSAndroidApp\app\src\main\AndroidManifest.xml:112:13-49
	android:name
		ADDED from E:\UTTAM_WORKSPACE\new aepsmatm advanced\EasyAEPSAndroidApp\app\src\main\AndroidManifest.xml:111:13-65
activity#com.iserveu.aeps.settings.SettingsActivity
ADDED from E:\UTTAM_WORKSPACE\new aepsmatm advanced\EasyAEPSAndroidApp\app\src\main\AndroidManifest.xml:113:9-115:51
	android:screenOrientation
		ADDED from E:\UTTAM_WORKSPACE\new aepsmatm advanced\EasyAEPSAndroidApp\app\src\main\AndroidManifest.xml:115:13-49
	android:name
		ADDED from E:\UTTAM_WORKSPACE\new aepsmatm advanced\EasyAEPSAndroidApp\app\src\main\AndroidManifest.xml:114:13-54
activity#com.iserveu.aeps.matmtransaction.MatmSettlementActivity
ADDED from E:\UTTAM_WORKSPACE\new aepsmatm advanced\EasyAEPSAndroidApp\app\src\main\AndroidManifest.xml:116:9-118:51
	android:screenOrientation
		ADDED from E:\UTTAM_WORKSPACE\new aepsmatm advanced\EasyAEPSAndroidApp\app\src\main\AndroidManifest.xml:118:13-49
	android:name
		ADDED from E:\UTTAM_WORKSPACE\new aepsmatm advanced\EasyAEPSAndroidApp\app\src\main\AndroidManifest.xml:117:13-67
activity#com.finopaytech.finosdk.activity.DeviceSettingActivity
ADDED from E:\UTTAM_WORKSPACE\new aepsmatm advanced\EasyAEPSAndroidApp\app\src\main\AndroidManifest.xml:119:9-123:63
	android:screenOrientation
		ADDED from E:\UTTAM_WORKSPACE\new aepsmatm advanced\EasyAEPSAndroidApp\app\src\main\AndroidManifest.xml:122:13-49
	android:configChanges
		ADDED from E:\UTTAM_WORKSPACE\new aepsmatm advanced\EasyAEPSAndroidApp\app\src\main\AndroidManifest.xml:121:13-83
	android:theme
		ADDED from E:\UTTAM_WORKSPACE\new aepsmatm advanced\EasyAEPSAndroidApp\app\src\main\AndroidManifest.xml:123:13-60
	android:name
		ADDED from E:\UTTAM_WORKSPACE\new aepsmatm advanced\EasyAEPSAndroidApp\app\src\main\AndroidManifest.xml:120:13-82
activity#com.finopaytech.finosdk.fragments.BTDiscoveryFragment
ADDED from E:\UTTAM_WORKSPACE\new aepsmatm advanced\EasyAEPSAndroidApp\app\src\main\AndroidManifest.xml:124:9-128:63
	android:screenOrientation
		ADDED from E:\UTTAM_WORKSPACE\new aepsmatm advanced\EasyAEPSAndroidApp\app\src\main\AndroidManifest.xml:127:13-49
	android:configChanges
		ADDED from E:\UTTAM_WORKSPACE\new aepsmatm advanced\EasyAEPSAndroidApp\app\src\main\AndroidManifest.xml:126:13-83
	android:theme
		ADDED from E:\UTTAM_WORKSPACE\new aepsmatm advanced\EasyAEPSAndroidApp\app\src\main\AndroidManifest.xml:128:13-60
	android:name
		ADDED from E:\UTTAM_WORKSPACE\new aepsmatm advanced\EasyAEPSAndroidApp\app\src\main\AndroidManifest.xml:125:13-81
activity#com.finopaytech.finosdk.activity.MainTransactionActivity
ADDED from E:\UTTAM_WORKSPACE\new aepsmatm advanced\EasyAEPSAndroidApp\app\src\main\AndroidManifest.xml:129:9-133:63
	android:screenOrientation
		ADDED from E:\UTTAM_WORKSPACE\new aepsmatm advanced\EasyAEPSAndroidApp\app\src\main\AndroidManifest.xml:132:13-49
	android:configChanges
		ADDED from E:\UTTAM_WORKSPACE\new aepsmatm advanced\EasyAEPSAndroidApp\app\src\main\AndroidManifest.xml:131:13-83
	android:theme
		ADDED from E:\UTTAM_WORKSPACE\new aepsmatm advanced\EasyAEPSAndroidApp\app\src\main\AndroidManifest.xml:133:13-60
	android:name
		ADDED from E:\UTTAM_WORKSPACE\new aepsmatm advanced\EasyAEPSAndroidApp\app\src\main\AndroidManifest.xml:130:13-84
activity#com.finopaytech.finosdk.activity.TransactionStatusActivity
ADDED from E:\UTTAM_WORKSPACE\new aepsmatm advanced\EasyAEPSAndroidApp\app\src\main\AndroidManifest.xml:134:9-138:63
	android:screenOrientation
		ADDED from E:\UTTAM_WORKSPACE\new aepsmatm advanced\EasyAEPSAndroidApp\app\src\main\AndroidManifest.xml:137:13-49
	android:configChanges
		ADDED from E:\UTTAM_WORKSPACE\new aepsmatm advanced\EasyAEPSAndroidApp\app\src\main\AndroidManifest.xml:136:13-83
	android:theme
		ADDED from E:\UTTAM_WORKSPACE\new aepsmatm advanced\EasyAEPSAndroidApp\app\src\main\AndroidManifest.xml:138:13-60
	android:name
		ADDED from E:\UTTAM_WORKSPACE\new aepsmatm advanced\EasyAEPSAndroidApp\app\src\main\AndroidManifest.xml:135:13-86
activity#com.karumi.dexter.DexterActivity
ADDED from E:\UTTAM_WORKSPACE\new aepsmatm advanced\EasyAEPSAndroidApp\app\src\main\AndroidManifest.xml:139:9-142:15
	android:theme
		ADDED from E:\UTTAM_WORKSPACE\new aepsmatm advanced\EasyAEPSAndroidApp\app\src\main\AndroidManifest.xml:141:13-69
	android:name
		ADDED from E:\UTTAM_WORKSPACE\new aepsmatm advanced\EasyAEPSAndroidApp\app\src\main\AndroidManifest.xml:140:13-60
meta-data#android.support.FILE_PROVIDER_PATHS
ADDED from E:\UTTAM_WORKSPACE\new aepsmatm advanced\EasyAEPSAndroidApp\app\src\main\AndroidManifest.xml:149:13-152:25
	android:resource
		ADDED from E:\UTTAM_WORKSPACE\new aepsmatm advanced\EasyAEPSAndroidApp\app\src\main\AndroidManifest.xml:151:17-51
	android:name
		ADDED from E:\UTTAM_WORKSPACE\new aepsmatm advanced\EasyAEPSAndroidApp\app\src\main\AndroidManifest.xml:150:17-67
meta-data#com.google.android.gms.version
ADDED from E:\UTTAM_WORKSPACE\new aepsmatm advanced\EasyAEPSAndroidApp\app\src\main\AndroidManifest.xml:154:9-155:69
	android:value
		ADDED from E:\UTTAM_WORKSPACE\new aepsmatm advanced\EasyAEPSAndroidApp\app\src\main\AndroidManifest.xml:155:13-66
	android:name
		ADDED from E:\UTTAM_WORKSPACE\new aepsmatm advanced\EasyAEPSAndroidApp\app\src\main\AndroidManifest.xml:154:20-65
uses-feature#android.hardware.usb.host
ADDED from [finosdk.aar] C:\Users\lenovo\.gradle\caches\transforms-1\files-1.1\finosdk.aar\6a40f23130a3899ef56f915e9b35aa45\AndroidManifest.xml:12:5-62
	android:name
		ADDED from [finosdk.aar] C:\Users\lenovo\.gradle\caches\transforms-1\files-1.1\finosdk.aar\6a40f23130a3899ef56f915e9b35aa45\AndroidManifest.xml:12:19-59
uses-permission#com.google.android.finsky.permission.BIND_GET_INSTALL_REFERRER_SERVICE
ADDED from [com.google.firebase:firebase-analytics:16.0.0] C:\Users\lenovo\.gradle\caches\transforms-1\files-1.1\firebase-analytics-16.0.0.aar\411f5b483684ccbd6775d372d9077eaf\AndroidManifest.xml:26:5-110
MERGED from [com.google.firebase:firebase-analytics-impl:16.0.0] C:\Users\lenovo\.gradle\caches\transforms-1\files-1.1\firebase-analytics-impl-16.0.0.aar\d47e60e485f4f8d1435768475cc43c02\AndroidManifest.xml:26:5-110
MERGED from [com.google.firebase:firebase-analytics-impl:16.0.0] C:\Users\lenovo\.gradle\caches\transforms-1\files-1.1\firebase-analytics-impl-16.0.0.aar\d47e60e485f4f8d1435768475cc43c02\AndroidManifest.xml:26:5-110
	android:name
		ADDED from [com.google.firebase:firebase-analytics:16.0.0] C:\Users\lenovo\.gradle\caches\transforms-1\files-1.1\firebase-analytics-16.0.0.aar\411f5b483684ccbd6775d372d9077eaf\AndroidManifest.xml:26:22-107
uses-permission#com.google.android.c2dm.permission.RECEIVE
ADDED from [com.google.firebase:firebase-iid:16.0.0] C:\Users\lenovo\.gradle\caches\transforms-1\files-1.1\firebase-iid-16.0.0.aar\0037ee74b5b7d2dad6ae8d034afcb809\AndroidManifest.xml:26:5-82
	android:name
		ADDED from [com.google.firebase:firebase-iid:16.0.0] C:\Users\lenovo\.gradle\caches\transforms-1\files-1.1\firebase-iid-16.0.0.aar\0037ee74b5b7d2dad6ae8d034afcb809\AndroidManifest.xml:26:22-79
permission#${applicationId}.permission.C2D_MESSAGE
ADDED from [com.google.firebase:firebase-iid:16.0.0] C:\Users\lenovo\.gradle\caches\transforms-1\files-1.1\firebase-iid-16.0.0.aar\0037ee74b5b7d2dad6ae8d034afcb809\AndroidManifest.xml:28:5-30:47
	android:protectionLevel
		ADDED from [com.google.firebase:firebase-iid:16.0.0] C:\Users\lenovo\.gradle\caches\transforms-1\files-1.1\firebase-iid-16.0.0.aar\0037ee74b5b7d2dad6ae8d034afcb809\AndroidManifest.xml:30:9-44
	android:name
		ADDED from [com.google.firebase:firebase-iid:16.0.0] C:\Users\lenovo\.gradle\caches\transforms-1\files-1.1\firebase-iid-16.0.0.aar\0037ee74b5b7d2dad6ae8d034afcb809\AndroidManifest.xml:29:9-63
permission#com.iserveu.aeps.permission.C2D_MESSAGE
ADDED from [com.google.firebase:firebase-iid:16.0.0] C:\Users\lenovo\.gradle\caches\transforms-1\files-1.1\firebase-iid-16.0.0.aar\0037ee74b5b7d2dad6ae8d034afcb809\AndroidManifest.xml:28:5-30:47
	android:protectionLevel
		ADDED from [com.google.firebase:firebase-iid:16.0.0] C:\Users\lenovo\.gradle\caches\transforms-1\files-1.1\firebase-iid-16.0.0.aar\0037ee74b5b7d2dad6ae8d034afcb809\AndroidManifest.xml:30:9-44
	android:name
		ADDED from [com.google.firebase:firebase-iid:16.0.0] C:\Users\lenovo\.gradle\caches\transforms-1\files-1.1\firebase-iid-16.0.0.aar\0037ee74b5b7d2dad6ae8d034afcb809\AndroidManifest.xml:29:9-63
uses-permission#${applicationId}.permission.C2D_MESSAGE
ADDED from [com.google.firebase:firebase-iid:16.0.0] C:\Users\lenovo\.gradle\caches\transforms-1\files-1.1\firebase-iid-16.0.0.aar\0037ee74b5b7d2dad6ae8d034afcb809\AndroidManifest.xml:32:5-79
	android:name
		ADDED from [com.google.firebase:firebase-iid:16.0.0] C:\Users\lenovo\.gradle\caches\transforms-1\files-1.1\firebase-iid-16.0.0.aar\0037ee74b5b7d2dad6ae8d034afcb809\AndroidManifest.xml:32:22-76
uses-permission#com.iserveu.aeps.permission.C2D_MESSAGE
ADDED from [com.google.firebase:firebase-iid:16.0.0] C:\Users\lenovo\.gradle\caches\transforms-1\files-1.1\firebase-iid-16.0.0.aar\0037ee74b5b7d2dad6ae8d034afcb809\AndroidManifest.xml:32:5-79
	android:name
		ADDED from [com.google.firebase:firebase-iid:16.0.0] C:\Users\lenovo\.gradle\caches\transforms-1\files-1.1\firebase-iid-16.0.0.aar\0037ee74b5b7d2dad6ae8d034afcb809\AndroidManifest.xml:32:22-76
